<?xml version="1.0" standalone="no"?>
<!DOCTYPE svg PUBLIC "-//W3C//DTD SVG 1.1//EN" "http://www.w3.org/Graphics/SVG/1.1/DTD/svg11.dtd" >
<svg>
<metadata>
Created by FontForge 20090914 at Tue Apr 24 19:51:06 2012
 By www-data
Digitized data copyright The Monotype Corporation 1991-1995. All rights reserved. Arial&#194;&#174; is a trademark of The Monotype Corporation which may be registered in certain jurisdictions.
</metadata>
<defs>
<font id="ArialNarrow" horiz-adv-x="934" >
  <font-face 
    font-family="Arial Narrow"
    font-weight="400"
    font-stretch="condensed"
    units-per-em="2048"
    panose-1="2 11 5 6 2 1 2 2 2 4"
    ascent="1638"
    descent="-410"
    x-height="1062"
    cap-height="1466"
    bbox="-373 -431 1679 1888"
    underline-thickness="102"
    underline-position="-103"
    unicode-range="U+0020-U+F002"
  />
<missing-glyph horiz-adv-x="467" 
d="M44 0v1280h389v-1280h-389zM91 53h296v1184h-296v-1184z" />
    <glyph glyph-name=".notdef" horiz-adv-x="467" 
d="M44 0v1280h389v-1280h-389zM91 53h296v1184h-296v-1184z" />
    <glyph glyph-name=".null" horiz-adv-x="0" 
 />
    <glyph glyph-name="nonmarkingreturn" horiz-adv-x="467" 
 />
    <glyph glyph-name="space" unicode=" " horiz-adv-x="467" 
 />
    <glyph glyph-name="exclam" unicode="!" horiz-adv-x="467" 
d="M193 364l-45 777v325h183v-325l-42 -777h-96zM155 0v205h169v-205h-169z" />
    <glyph glyph-name="quotedbl" unicode="&#x22;" horiz-adv-x="596" 
d="M117 947l-41 279v240h168v-240l-37 -279h-90zM388 947l-39 279v240h168v-240l-40 -279h-89z" />
    <glyph glyph-name="numbersign" unicode="#" 
d="M82 -25l71 426h-138v149h163l61 363h-224v149h248l72 429h123l-72 -429h259l71 429h124l-72 -429h143v-149h-167l-61 -363h228v-149h-253l-71 -426h-124l71 426h-258l-71 -426h-123zM301 550h258l61 363h-258z" />
    <glyph glyph-name="dollar" unicode="$" 
d="M415 -211v180q-120 19 -189 67.5t-115 142.5t-54 228l149 34q19 -162 76.5 -236.5t132.5 -83.5v573q-98 22 -194 92q-64 46 -101 128.5t-37 192.5q0 113 42 205.5t110 140.5t180 62v86h88v-86q93 -11 156.5 -53t106.5 -118.5t57 -189.5l-152 -28q-25 201 -168 237v-519
q101 -31 130 -45q66 -31 114.5 -82t77 -127.5t28.5 -172.5q0 -195 -101 -316t-249 -130v-182h-88zM415 1365q-84 -16 -134.5 -82t-50.5 -169q0 -178 185 -247v498zM503 121q83 13 140.5 88.5t57.5 198.5q0 99 -42.5 158t-155.5 103v-548z" />
    <glyph glyph-name="percent" unicode="%" horiz-adv-x="1493" 
d="M94 1114q0 183 73 280t179 97q110 0 186 -97t76 -290q0 -189 -76 -288.5t-184 -99.5q-106 0 -180 98.5t-74 299.5zM351 1367q-55 0 -91.5 -58.5t-36.5 -205.5t36.5 -205t94.5 -58q53 0 89.5 58.5t36.5 204.5t-37 205t-92 59zM351 -54l658 1545h120l-655 -1545h-123z
M872 344q0 183 73 280t178 97q111 0 187 -96.5t76 -289.5q0 -190 -76.5 -289.5t-183.5 -99.5q-106 0 -180 99t-74 299zM1129 597q-56 0 -92.5 -58.5t-36.5 -205.5t37 -205t95 -58q52 0 88.5 59t36.5 205t-36.5 204.5t-91.5 58.5z" />
    <glyph glyph-name="ampersand" unicode="&#x26;" horiz-adv-x="1120" 
d="M799 173q-146 -198 -344 -198q-179 0 -280.5 134t-101.5 296q0 271 286 437q-79 111 -107 182.5t-28 139.5q0 139 87.5 233t210.5 94q118 0 199 -88.5t81 -224.5q0 -209 -227 -357l216 -335q35 86 57 204l153 -40q-39 -190 -106 -316q81 -132 187 -225l-99 -143
q-89 71 -184 207zM499 937q92 67 122 118t30 118q0 78 -40 124t-96 46q-57 0 -98.5 -45t-41.5 -117q0 -69 58 -151zM706 315l-270 409q-114 -83 -159 -156.5t-45 -151.5q0 -100 62 -191t162 -91q64 0 135 49t115 132z" />
    <glyph glyph-name="quotesingle" unicode="'" horiz-adv-x="322" 
d="M109 947l-38 274v245h168v-245l-39 -274h-91z" />
    <glyph glyph-name="parenleft" unicode="(" horiz-adv-x="559" 
d="M392 -431q-110 172 -200.5 424t-90.5 539q0 486 291 959h106q-112 -235 -154.5 -364.5t-67 -284.5t-24.5 -312q0 -480 246 -961h-106z" />
    <glyph glyph-name="parenright" unicode=")" horiz-adv-x="559" 
d="M167 -431h-106q245 481 245 961q0 157 -24.5 312t-66.5 284.5t-154 364.5h106q291 -473 291 -959q0 -279 -87 -530.5t-204 -432.5z" />
    <glyph glyph-name="asterisk" unicode="*" horiz-adv-x="653" 
d="M50 1197l38 142q130 -56 189 -97q-15 184 -16 249h119q-2 -96 -19 -248q83 51 193 96l38 -142q-105 -42 -204 -56q50 -53 141 -189l-98 -85q-46 76 -113 215q-61 -141 -107 -215l-96 85q90 138 136 189q-107 25 -201 56z" />
    <glyph glyph-name="plus" unicode="+" horiz-adv-x="981" 
d="M419 237v402h-327v168h327v399h140v-399h327v-168h-327v-402h-140z" />
    <glyph glyph-name="comma" unicode="," horiz-adv-x="467" 
d="M152 0v205h168v-205q0 -119 -35 -186.5t-102 -103.5l-41 77q45 24 68 71.5t25 141.5h-83z" />
    <glyph glyph-name="hyphen" unicode="-" horiz-adv-x="559" 
d="M53 440v181h453v-181h-453z" />
    <glyph glyph-name="hyphen" unicode="&#xad;" horiz-adv-x="559" 
d="M53 440v181h453v-181h-453z" />
    <glyph glyph-name="period" unicode="." horiz-adv-x="467" 
d="M155 0v205h168v-205h-168z" />
    <glyph glyph-name="slash" unicode="/" horiz-adv-x="467" 
d="M0 -25l348 1516h119l-349 -1516h-118z" />
    <glyph glyph-name="zero" unicode="0" 
d="M67 723q0 369 99.5 559t293.5 190q172 0 271 -154q120 -186 120 -595q0 -367 -99 -557.5t-294 -190.5q-172 0 -281.5 168t-109.5 580zM218 723q0 -357 68.5 -478.5t175.5 -121.5q101 0 169 123t68 477q0 358 -68.5 479t-177.5 121q-100 0 -167.5 -123t-67.5 -477z" />
    <glyph glyph-name="one" unicode="1" 
d="M623 0h-148v1147q-51 -60 -137 -122.5t-158 -94.5v174q122 70 215.5 171t131.5 197h96v-1472z" />
    <glyph glyph-name="two" unicode="2" 
d="M845 173v-173h-795q-3 105 63.5 235t243.5 307q207 206 271 318.5t64 209.5q0 112 -65.5 182.5t-161.5 70.5q-103 0 -169 -76t-66 -218l-152 19q16 211 119.5 317.5t272.5 106.5q184 0 278.5 -124t94.5 -282q0 -140 -74 -268.5t-281 -342.5q-132 -135 -170.5 -184
t-62.5 -98h590z" />
    <glyph glyph-name="three" unicode="3" 
d="M68 387l148 24q46 -288 233 -288q101 0 175 85.5t74 221.5q0 128 -68 206t-167 78q-42 0 -104 -20l17 158l23 -2q109 0 177 67t68 179q0 103 -57 165.5t-139 62.5q-85 0 -143.5 -65.5t-74.5 -198.5l-147 32q28 188 126 284t237 96q146 0 248 -108t102 -272
q0 -100 -43.5 -177t-121.5 -121q72 -20 119 -66t76 -123t29 -172q0 -202 -119 -330.5t-285 -128.5q-154 0 -261 112t-122 301z" />
    <glyph glyph-name="four" unicode="4" 
d="M540 0v351h-521v165l549 950h120v-950h163v-165h-163v-351h-148zM540 516v661l-376 -661h376z" />
    <glyph glyph-name="five" unicode="5" 
d="M67 384l155 16q18 -140 81.5 -208.5t147.5 -68.5q105 0 181 96.5t76 263.5q0 157 -73.5 243.5t-184.5 86.5q-67 0 -125.5 -37.5t-92.5 -104.5l-139 22l117 753h597v-172h-479l-65 -394q107 92 227 92q151 0 262.5 -128.5t111.5 -346.5q0 -215 -111.5 -368.5
t-299.5 -153.5q-156 0 -263.5 108.5t-122.5 300.5z" />
    <glyph glyph-name="six" unicode="6" 
d="M833 1107l-147 -14q-21 113 -62 161q-59 70 -142 70q-129 0 -207 -160q-67 -138 -68 -408q51 96 128 145.5t163 49.5q143 0 249.5 -129.5t106.5 -346.5q0 -147 -53.5 -266.5t-137.5 -176.5t-185 -57q-182 0 -300 164t-118 547q0 425 121 605.5t310 180.5
q137 0 229.5 -93.5t112.5 -271.5zM230 475q0 -159 75 -255.5t174 -96.5q87 0 155.5 91t68.5 250q0 156 -68 242t-166 86q-96 0 -167.5 -85.5t-71.5 -231.5z" />
    <glyph glyph-name="seven" unicode="7" 
d="M77 1274v173h778v-140q-174 -226 -306 -588.5t-152 -718.5h-152q3 184 58.5 429t152.5 467t209 378h-588z" />
    <glyph glyph-name="eight" unicode="8" 
d="M294 795q-89 40 -134.5 114.5t-45.5 185.5q0 167 98.5 272t247.5 105q150 0 249.5 -107t99.5 -276q0 -106 -44 -179.5t-133 -114.5q109 -43 167.5 -139t58.5 -238q0 -196 -113.5 -319.5t-281.5 -123.5q-170 0 -283.5 123.5t-113.5 324.5q0 147 60.5 242.5t167.5 129.5z
M266 1100q0 -108 57 -172t140 -64q81 0 138 63t57 163q0 103 -58.5 168.5t-138.5 65.5t-137.5 -64t-57.5 -160zM217 423q0 -135 72.5 -217.5t173.5 -82.5q102 0 173 80t71 214q0 135 -73 217.5t-175 82.5q-101 0 -171.5 -82t-70.5 -212z" />
    <glyph glyph-name="nine" unicode="9" 
d="M89 339l142 16q34 -232 200 -232q74 0 134.5 50.5t102.5 179.5t42 301v36q-46 -89 -124 -141t-159 -52q-147 0 -253.5 128.5t-106.5 351.5q0 230 110.5 362.5t268.5 132.5q112 0 209 -74t150 -218t53 -415q0 -302 -57 -469t-154.5 -244t-218.5 -77q-137 0 -229 93.5
t-110 270.5zM694 986q0 157 -70 247t-161 90q-95 0 -169.5 -96t-74.5 -256q0 -144 71 -229.5t170 -85.5q98 0 166 86t68 244z" />
    <glyph glyph-name="colon" unicode=":" horiz-adv-x="467" 
d="M155 857v205h168v-205h-168zM155 0v205h168v-205h-168z" />
    <glyph glyph-name="semicolon" unicode=";" horiz-adv-x="467" 
d="M152 857v205h168v-205h-168zM152 0v205h168v-205q0 -119 -35 -186.5t-102 -103.5l-41 77q45 24 68 71.5t25 141.5h-83z" />
    <glyph glyph-name="less" unicode="&#x3c;" horiz-adv-x="981" 
d="M90 641v168l796 410v-179l-631 -316l631 -319v-179z" />
    <glyph glyph-name="equal" unicode="=" horiz-adv-x="981" 
d="M886 862h-794v168h794v-168zM886 417h-794v168h794v-168z" />
    <glyph glyph-name="greater" unicode="&#x3e;" horiz-adv-x="981" 
d="M886 641l-796 -415v179l631 319l-631 316v179l796 -410v-168z" />
    <glyph glyph-name="question" unicode="?" 
d="M385 361l-2 54q0 145 49 243q34 68 143 185q74 79 97 128.5t23 107.5q0 110 -70 187t-161 77q-93 0 -157.5 -71t-83.5 -226l-152 22q22 212 125.5 317.5t266.5 105.5q164 0 273.5 -112.5t109.5 -287.5q0 -96 -36 -176t-144 -198q-92 -99 -114.5 -156.5t-25.5 -199.5h-141
zM375 0v205h168v-205h-168z" />
    <glyph glyph-name="at" unicode="@" horiz-adv-x="1704" 
d="M950 163q-58 -82 -124.5 -124t-123.5 -42q-120 0 -202 109q-99 132 -99 340q0 168 71 327.5t168 235t190 75.5q68 0 133 -46t112 -138l27 155h148l-119 -671q-24 -139 -24 -155q0 -29 17 -47.5t40 -18.5q44 0 125 70t136 203.5t55 282.5q0 178 -77 322t-212.5 225
t-294.5 81q-189 0 -342 -102t-248.5 -303.5t-95.5 -460.5q0 -244 86 -415t245.5 -260t378.5 -89q197 0 346.5 82.5t227.5 219.5h148q-49 -121 -161.5 -231.5t-248.5 -164.5t-313 -54q-259 0 -440 104t-285.5 306.5t-104.5 487.5q0 303 115 549t290.5 361.5t409.5 115.5
q196 0 352.5 -96t251 -278.5t94.5 -403.5q0 -300 -174 -527q-147 -192 -320 -192q-82 0 -116.5 40.5t-41.5 126.5zM553 434q0 -138 54.5 -213.5t122.5 -75.5q58 0 128 58.5t120 182.5t50 261q0 140 -56 214t-135 74q-61 0 -122.5 -52t-111.5 -186t-50 -263z" />
    <glyph glyph-name="A" unicode="A" horiz-adv-x="1120" 
d="M-2 0l462 1466h171l492 -1466h-182l-140 444h-502l-132 -444h-169zM345 602h407l-125 406q-58 187 -85 304q-23 -141 -65 -280z" />
    <glyph glyph-name="B" unicode="B" horiz-adv-x="1120" 
d="M124 0v1466h451q137 0 217 -42.5t131 -132.5t51 -199q0 -101 -44 -182t-124 -130q105 -38 165.5 -129.5t60.5 -225.5q0 -133 -54.5 -233.5t-145.5 -146t-250 -45.5h-458zM283 850h260q102 0 145 14q62 21 95.5 70.5t33.5 134.5q0 79 -30.5 131.5t-81 72.5t-181.5 20h-241
v-443zM283 173h299q99 0 146 18q68 26 103.5 85.5t35.5 149.5q0 83 -34 140.5t-91.5 84t-180.5 26.5h-278v-504z" />
    <glyph glyph-name="C" unicode="C" horiz-adv-x="1212" 
d="M983 514l160 -49q-53 -247 -185.5 -368.5t-322.5 -121.5q-167 0 -285.5 81.5t-194 261.5t-75.5 425q0 242 75.5 409.5t204.5 253t288 85.5q174 0 299 -108.5t175 -318.5l-156 -45q-80 306 -321 306q-120 0 -208 -61.5t-140.5 -191.5t-52.5 -329q0 -301 106 -451.5
t282 -150.5q130 0 224.5 92.5t126.5 280.5z" />
    <glyph glyph-name="D" unicode="D" horiz-adv-x="1212" 
d="M126 0v1466h415q154 0 234 -27q105 -35 182 -128t120 -234.5t43 -335.5q0 -249 -73 -422.5t-187.5 -246t-299.5 -72.5h-434zM285 173h256q155 0 235 50.5t123 162.5q57 149 57 357q0 223 -60.5 350.5t-155.5 170.5q-64 29 -203 29h-252v-1120z" />
    <glyph glyph-name="E" unicode="E" horiz-adv-x="1120" 
d="M133 0v1466h869v-173h-710v-449h665v-172h-665v-499h738v-173h-897z" />
    <glyph glyph-name="F" unicode="F" horiz-adv-x="1026" 
d="M141 0v1466h811v-173h-652v-454h564v-173h-564v-666h-159z" />
    <glyph glyph-name="G" unicode="G" horiz-adv-x="1307" 
d="M696 575v172l509 1v-544q-117 -114 -242 -171.5t-257 -57.5q-176 0 -314 88t-218.5 257t-80.5 406q0 240 81 418t212 262.5t310 84.5q132 0 231 -49t163 -139t96 -247l-143 -48q-29 124 -73 185.5t-116 96.5t-162 35q-131 0 -225.5 -63.5t-152 -197.5t-57.5 -327
q0 -294 123 -440.5t320 -146.5q94 0 192.5 45t156.5 107v273h-353z" />
    <glyph glyph-name="H" unicode="H" horiz-adv-x="1212" 
d="M129 0v1466h159v-602h625v602h159v-1466h-159v691h-625v-691h-159z" />
    <glyph glyph-name="I" unicode="I" horiz-adv-x="467" 
d="M160 0v1466h159v-1466h-159z" />
    <glyph glyph-name="J" unicode="J" horiz-adv-x="840" 
d="M45 416l143 24q6 -168 52 -230t127 -62q57 0 100.5 31.5t58.5 79.5q21 65 21 197v1010h159v-999q0 -270 -88.5 -381t-249.5 -111q-157 0 -234 100q-89 114 -89 341z" />
    <glyph glyph-name="K" unicode="K" horiz-adv-x="1120" 
d="M124 0v1466h159v-727l597 727h216l-505 -594l527 -872h-210l-428 742l-197 -234v-508h-159z" />
    <glyph glyph-name="L" unicode="L" 
d="M120 0v1466h159v-1293h592v-173h-751z" />
    <glyph glyph-name="M" unicode="M" horiz-adv-x="1399" 
d="M125 0v1466h239l285 -1038l57 -217q21 81 64 235l288 1020h214v-1466h-153v1227l-350 -1227h-143l-348 1248v-1248h-153z" />
    <glyph glyph-name="N" unicode="N" horiz-adv-x="1212" 
d="M125 0v1466h163l632 -1151v1151h152v-1466h-163l-631 1152v-1152h-153z" />
    <glyph glyph-name="O" unicode="O" horiz-adv-x="1307" 
d="M85 714q0 375 165 576.5t411 201.5q159 0 290 -90t207.5 -261.5t76.5 -408.5q0 -326 -148 -531q-163 -226 -427 -226q-266 0 -428 232q-147 210 -147 507zM249 711q0 -271 119.5 -420.5t290.5 -149.5q175 0 293.5 151t118.5 444q0 189 -61 338q-47 114 -141.5 182.5
t-206.5 68.5q-180 0 -296.5 -150t-116.5 -464z" />
    <glyph glyph-name="P" unicode="P" horiz-adv-x="1120" 
d="M130 0v1466h453q160 0 236 -28q104 -38 166 -141t62 -253q0 -198 -101 -323t-349 -125h-308v-596h-159zM289 769h311q147 0 215 66.5t68 200.5q0 87 -33.5 149t-81 85t-171.5 23h-308v-524z" />
    <glyph glyph-name="Q" unicode="Q" horiz-adv-x="1307" 
d="M1045 157q111 -93 204 -136l-47 -135q-132 58 -258 180q-133 -91 -294 -91q-264 0 -427 231q-147 208 -147 526q0 238 79 412.5t207.5 261t289.5 86.5q159 0 289.5 -89.5t207.5 -261t77 -405.5q0 -183 -47.5 -331t-133.5 -248zM694 405q137 -46 227 -140q140 158 140 471
q0 189 -53.5 321t-148 200t-206.5 68q-178 0 -295.5 -149.5t-117.5 -443.5q0 -290 119 -440.5t294 -150.5q84 0 160 39q-74 59 -158 84z" />
    <glyph glyph-name="R" unicode="R" horiz-adv-x="1212" 
d="M129 0v1466h533q167 0 246.5 -41t130.5 -136.5t51 -221.5q0 -166 -86.5 -269t-251.5 -131q67 -40 102 -81q71 -84 125 -187l210 -399h-200l-160 305q-93 179 -140.5 241t-92 83.5t-124.5 21.5h-184v-651h-159zM288 819h342q112 0 170 27t92 85t34 135q0 111 -65 174.5
t-193 63.5h-380v-485z" />
    <glyph glyph-name="S" unicode="S" horiz-adv-x="1120" 
d="M76 471l150 16q12 -121 54.5 -188.5t121.5 -108.5t178 -41q142 0 220.5 69.5t78.5 180.5q0 65 -28.5 113.5t-86 79.5t-248.5 87q-170 50 -242 101t-112 129.5t-40 177.5q0 178 115 291t310 113q134 0 234.5 -53t156 -152t59.5 -233l-153 -14q-12 143 -85.5 212t-206.5 69
q-135 0 -206 -60.5t-71 -156.5q0 -89 52 -138t234 -99q178 -49 250 -85q110 -56 166 -147.5t56 -218.5q0 -126 -59 -229.5t-160.5 -157.5t-244.5 -54q-223 0 -355.5 134t-137.5 363z" />
    <glyph glyph-name="T" unicode="T" horiz-adv-x="1026" 
d="M438 0v1293h-396v173h953v-173h-398v-1293h-159z" />
    <glyph glyph-name="U" unicode="U" horiz-adv-x="1212" 
d="M915 1466h160v-847q0 -213 -41.5 -349.5t-151 -215.5t-278.5 -79q-238 0 -356.5 142t-118.5 502v847h159v-846q0 -199 31 -288t101.5 -135.5t171.5 -46.5q170 0 246.5 96t76.5 374v846z" />
    <glyph glyph-name="V" unicode="V" horiz-adv-x="1120" 
d="M474 0l-466 1466h172l313 -1065q36 -124 63 -240q28 121 64 240l325 1065h162l-470 -1466h-163z" />
    <glyph glyph-name="W" unicode="W" horiz-adv-x="1585" 
d="M342 0l-319 1466h163l183 -961q29 -148 51 -300l54 271l229 990h192l172 -742q63 -271 94 -519q23 143 59 319l189 942h160l-330 -1466h-153l-254 1117l-38 172q-17 -96 -35 -172l-255 -1117h-162z" />
    <glyph glyph-name="X" unicode="X" horiz-adv-x="1120" 
d="M8 0l465 764l-410 702h189l219 -376q67 -116 96 -180q39 78 95 167l243 389h172l-422 -691l455 -775h-196l-303 523q-25 44 -52 98q-41 -80 -58 -110l-302 -511h-191z" />
    <glyph glyph-name="Y" unicode="Y" horiz-adv-x="1120" 
d="M468 0v621l-463 845h194l236 -442q70 -131 123 -248q53 115 131 259l233 431h185l-480 -845v-621h-159z" />
    <glyph glyph-name="Z" unicode="Z" horiz-adv-x="1026" 
d="M36 0v180l616 939q64 98 125 174h-672v173h861v-173l-674 -1017l-73 -103h767v-173h-950z" />
    <glyph glyph-name="bracketleft" unicode="[" horiz-adv-x="467" 
d="M117 -407v1873h326v-149h-179v-1575h179v-149h-326z" />
    <glyph glyph-name="backslash" unicode="\" horiz-adv-x="467" 
d="M348 -25l-348 1516h119l348 -1516h-119z" />
    <glyph glyph-name="bracketright" unicode="]" horiz-adv-x="467" 
d="M362 -407h-326v149h178v1575h-178v149h326v-1873z" />
    <glyph glyph-name="asciicircum" unicode="^" horiz-adv-x="788" 
d="M196 690h-151l290 801h119l290 -801h-148l-203 597z" />
    <glyph glyph-name="underscore" unicode="_" 
d="M-12 -154h955v-102h-955v102z" />
    <glyph glyph-name="grave" unicode="`" horiz-adv-x="559" 
d="M381 1194h-119l-189 280h198z" />
    <glyph glyph-name="a" unicode="a" 
d="M676 131q-74 -77 -154 -116t-166 -39q-136 0 -217 82t-81 221q0 92 38 163t104 111t200 59q180 26 264 62l1 46q0 109 -39 153q-55 64 -169 64q-103 0 -154 -42.5t-75 -159.5l-145 24q31 171 125.5 249t270.5 78q137 0 215 -51.5t98.5 -127.5t20.5 -222v-240
q0 -252 9.5 -317.5t37.5 -127.5h-154q-23 55 -30 131zM664 533q-81 -40 -241 -68q-93 -16 -130 -36.5t-57.5 -58t-20.5 -86.5q0 -76 47 -121.5t130 -45.5q79 0 143.5 41t96.5 109.5t32 199.5v66z" />
    <glyph glyph-name="b" unicode="b" 
d="M244 0h-137v1466h147v-523q47 72 106.5 107.5t132.5 35.5q102 0 185.5 -61t133.5 -185t50 -301q0 -270 -113 -416.5t-264 -146.5q-76 0 -136.5 39.5t-104.5 117.5v-133zM242 539q0 -165 30 -247t85 -125t122 -43q91 0 161.5 102.5t70.5 306.5q0 209 -68 307t-167 98
q-91 0 -162.5 -102.5t-71.5 -296.5z" />
    <glyph glyph-name="c" unicode="c" horiz-adv-x="840" 
d="M679 389l145 -23q-25 -190 -125.5 -290t-241.5 -100q-171 0 -281.5 140.5t-110.5 415.5q0 277 111.5 415.5t286.5 138.5q135 0 227.5 -84t118.5 -252l-143 -27q-21 108 -73 161.5t-125 53.5q-109 0 -180.5 -96.5t-71.5 -306.5q0 -217 68.5 -314t175.5 -97
q84 0 143.5 64.5t75.5 200.5z" />
    <glyph glyph-name="d" unicode="d" 
d="M673 0v134q-40 -77 -103 -117.5t-136 -40.5q-154 0 -266.5 145.5t-112.5 409.5q0 181 50 307t133.5 187t185.5 61q73 0 135.5 -38.5t103.5 -107.5v526h148v-1466h-138zM206 530q0 -206 71.5 -306t166.5 -100q94 0 163 96t69 290q0 223 -69 325.5t-174 102.5
q-93 0 -160 -98.5t-67 -309.5z" />
    <glyph glyph-name="e" unicode="e" 
d="M704 342l152 -23q-38 -170 -137.5 -256.5t-246.5 -86.5q-185 0 -299.5 140.5t-114.5 405.5q0 275 115.5 419.5t292.5 144.5q169 0 282 -142t113 -411l-1 -48h-650q9 -179 83 -270t180 -91q166 0 231 218zM219 633h486q-10 138 -59 206q-71 99 -181 99q-99 0 -169 -82.5
t-77 -222.5z" />
    <glyph glyph-name="f" unicode="f" horiz-adv-x="467" 
d="M150 0v922h-131v140h131v113q0 125 26 187.5t79.5 95.5t134.5 33q63 0 138 -18l-22 -157q-46 10 -87 10q-66 0 -94.5 -34.5t-28.5 -131.5v-98h170v-140h-170v-922h-146z" />
    <glyph glyph-name="g" unicode="g" 
d="M80 -88l144 -26q10 -85 60 -126.5t139 -41.5q97 0 154.5 46.5t78.5 138.5q13 56 13 236q-48 -69 -108 -104t-133 -35q-156 0 -259 132q-118 152 -118 407q0 171 52 299t136.5 188t189.5 60q77 0 140.5 -38t112.5 -114v128h136v-918q0 -245 -40 -349.5t-131 -165
t-219 -60.5q-169 0 -260 91t-88 252zM203 550q0 -209 69 -305t169 -96t170 94t70 299q0 200 -72 297.5t-175 97.5q-92 0 -161.5 -97.5t-69.5 -289.5z" />
    <glyph glyph-name="h" unicode="h" 
d="M108 0v1466h147v-526q52 73 117.5 109.5t144.5 36.5q139 0 219.5 -88.5t80.5 -324.5v-673h-147v673q0 138 -49 198t-135 60q-96 0 -163.5 -77t-67.5 -273v-581h-147z" />
    <glyph glyph-name="i" unicode="i" horiz-adv-x="373" 
d="M108 1259v207h147v-207h-147zM108 0v1062h147v-1062h-147z" />
    <glyph glyph-name="j" unicode="j" horiz-adv-x="373" 
d="M107 1257v209h147v-209h-147zM-80 -412l28 153q44 -14 69 -14q47 0 68.5 37t21.5 182v1116h147v-1120q0 -217 -55.5 -295t-162.5 -78q-60 0 -116 19z" />
    <glyph glyph-name="k" unicode="k" horiz-adv-x="840" 
d="M112 0v1466h147v-836l350 432h191l-333 -394l366 -668h-181l-289 543l-104 -122v-421h-147z" />
    <glyph glyph-name="l" unicode="l" horiz-adv-x="373" 
d="M104 0v1466h147v-1466h-147z" />
    <glyph glyph-name="m" unicode="m" horiz-adv-x="1399" 
d="M110 0v1062h132v-149q44 83 113 128t151 45q92 0 155.5 -47.5t90.5 -138.5q52 93 119.5 139.5t149.5 46.5q125 0 197 -85t72 -272v-729h-147v669q0 114 -16.5 161.5t-53.5 73.5t-83 26q-95 0 -155 -75.5t-60 -237.5v-617h-148v690q0 132 -40.5 186t-111.5 54
q-101 0 -159.5 -81.5t-58.5 -297.5v-551h-147z" />
    <glyph glyph-name="n" unicode="n" 
d="M108 0v1062h133v-151q48 88 117.5 131.5t159.5 43.5q70 0 129.5 -27.5t96 -72t54.5 -115.5t18 -218v-653h-148v646q0 117 -20 171t-62.5 83.5t-98.5 29.5q-106 0 -169 -79t-63 -271v-580h-147z" />
    <glyph glyph-name="o" unicode="o" 
d="M53 531q0 275 115.5 415t292.5 140q174 0 291 -140t117 -404q0 -286 -115 -426t-293 -140q-175 0 -291.5 140.5t-116.5 414.5zM204 531q0 -206 75 -306.5t186 -100.5q104 0 178.5 101.5t74.5 305.5q0 205 -75 305.5t-186 100.5q-105 0 -179 -101t-74 -305z" />
    <glyph glyph-name="p" unicode="p" 
d="M108 -407v1469h135v-138q50 86 111 124t140 38q103 0 186 -61t133.5 -185.5t50.5 -299.5q0 -271 -113.5 -417.5t-266.5 -146.5q-68 0 -127 35t-102 99v-517h-147zM241 525q0 -206 69 -303.5t167 -97.5q94 0 165 101t71 312q0 208 -69 308t-168 100q-89 0 -162 -107.5
t-73 -312.5z" />
    <glyph glyph-name="q" unicode="q" 
d="M663 -407v520q-35 -61 -97.5 -99t-125.5 -38q-156 0 -270 148t-114 417q0 234 96 389.5t272 155.5q81 0 144 -41.5t109 -124.5v142h133v-1469h-147zM207 534q0 -207 72 -308.5t172 -101.5q89 0 158 97.5t69 290.5q0 219 -72.5 325.5t-172.5 106.5q-91 0 -158.5 -99.5
t-67.5 -310.5z" />
    <glyph glyph-name="r" unicode="r" horiz-adv-x="559" 
d="M108 0v1062h133v-161q51 112 93.5 148.5t95.5 36.5q74 0 151 -58l-50 -167q-55 39 -107 39q-47 0 -86 -33t-55 -92q-28 -103 -28 -219v-556h-147z" />
    <glyph glyph-name="s" unicode="s" horiz-adv-x="840" 
d="M52 317l146 28q13 -112 71 -166.5t154 -54.5t148.5 47.5t52.5 120.5q0 63 -45 98q-31 24 -150 60q-172 53 -230 90t-90 99t-32 141q0 136 87 221t241 85q97 0 170.5 -35t112.5 -94t54 -169l-144 -24q-20 174 -189 174q-96 0 -143 -38.5t-47 -98.5q0 -59 45 -93
q27 -20 160 -64q183 -59 237 -93.5t84 -94t30 -141.5q0 -152 -96.5 -246t-263.5 -94q-313 0 -363 342z" />
    <glyph glyph-name="t" unicode="t" horiz-adv-x="467" 
d="M437 161l20 -159q-61 -16 -110 -16q-77 0 -124 30.5t-64.5 83.5t-17.5 211v611h-108v140h108v263l147 108v-371h149v-140h-149v-621q0 -86 13 -111q19 -36 71 -36q25 0 65 7z" />
    <glyph glyph-name="u" unicode="u" 
d="M679 0v156q-51 -90 -120 -135t-156 -45q-103 0 -176 55.5t-97.5 140.5t-24.5 232v658h147v-589q0 -164 16.5 -219.5t61 -89t101.5 -33.5q106 0 174 87q58 75 58 275v569h148v-1062h-132z" />
    <glyph glyph-name="v" unicode="v" horiz-adv-x="840" 
d="M352 0l-331 1062h156l187 -636q32 -108 56 -214q19 84 54 202l194 648h152l-330 -1062h-138z" />
    <glyph glyph-name="w" unicode="w" horiz-adv-x="1212" 
d="M268 0l-266 1062h153l138 -613l51 -228l46 219l138 622h152l130 -616l44 -203l50 205l149 614h144l-273 -1062h-153l-139 636l-33 181l-176 -817h-155z" />
    <glyph glyph-name="x" unicode="x" horiz-adv-x="840" 
d="M12 0l318 552l-294 510h184l134 -249q37 -69 61 -119l66 117l147 251h176l-301 -500l324 -562h-181l-179 330l-47 89l-229 -419h-179z" />
    <glyph glyph-name="y" unicode="y" horiz-adv-x="840" 
d="M104 -409l-16 169q49 -16 84 -16q47 0 77.5 19t50.5 59q7 14 58 176l-331 1064h159l182 -615q34 -115 63 -246q25 124 60 242l186 619h148l-331 -1080q-65 -210 -102.5 -280.5t-85 -101.5t-107.5 -31q-42 0 -95 22z" />
    <glyph glyph-name="z" unicode="z" horiz-adv-x="840" 
d="M33 0v146l555 776q-95 -6 -167 -6h-355v146h712v-119l-472 -674l-91 -123q99 9 186 9h403v-155h-771z" />
    <glyph glyph-name="braceleft" unicode="{" horiz-adv-x="561" 
d="M46 612q56 1 96 35.5t56.5 100t17.5 251.5q1 182 7 242q11 97 50 161q28 47 75 68t127 21h46v-157h-26q-84 0 -112.5 -36.5t-28.5 -168.5q0 -276 -12 -350q-16 -100 -52 -153.5t-107 -95.5q87 -45 129 -138t42 -312q0 -221 7 -258q10 -53 37 -74.5t97 -21.5h26v-157h-46
q-86 0 -129 21.5t-70 62.5q-37 56 -48 131t-12 277q-1 186 -18 252.5t-56 100t-96 35.5v163z" />
    <glyph glyph-name="bar" unicode="|" horiz-adv-x="436" 
d="M156 -431v1922h129v-1922h-129z" />
    <glyph glyph-name="braceright" unicode="}" horiz-adv-x="561" 
d="M512 612v-163q-57 -2 -96.5 -36t-56 -100.5t-17.5 -251.5q-1 -181 -7 -240q-11 -97 -50 -162q-28 -48 -75 -69t-127 -21h-46v157h26q83 0 111.5 37t28.5 169q0 277 13 353q17 99 56.5 156t102.5 89q-94 55 -133 145t-39 305q0 221 -6 259q-10 53 -37 74t-97 21h-26v157
h46q86 0 129 -21.5t70 -62.5q37 -56 48 -131t12 -277q1 -185 18 -252t56 -100.5t96 -34.5z" />
    <glyph glyph-name="asciitilde" unicode="~" horiz-adv-x="981" 
d="M72 557v205q87 120 228 120q46 0 100.5 -17t156.5 -70q91 -47 142 -47q49 0 95 28q65 41 117 109v-212q-102 -114 -227 -114q-48 0 -92 13t-133 62q-108 59 -173 59q-50 0 -97 -27t-117 -109z" />
    <glyph glyph-name="Adieresis" unicode="&#xc4;" horiz-adv-x="1120" 
d="M-2 0l462 1466h171l492 -1466h-182l-140 444h-502l-132 -444h-169zM345 602h407l-125 406q-58 187 -85 304q-23 -141 -65 -280zM330 1642v205h154v-205h-154zM636 1642v205h154v-205h-154z" />
    <glyph glyph-name="Aring" unicode="&#xc5;" horiz-adv-x="1120" 
d="M-2 0l462 1466h171l492 -1466h-182l-140 444h-502l-132 -444h-169zM345 602h407l-125 406q-58 187 -85 304q-23 -141 -65 -280zM394 1709q0 75 44.5 127t103.5 52q58 0 102.5 -52t44.5 -131q0 -80 -44 -131.5t-103 -51.5t-103.5 52t-44.5 135zM457 1708q0 -49 26 -80
t60 -31t60.5 31t26.5 78t-26 78t-60 31q-35 0 -61 -31t-26 -76z" />
    <glyph glyph-name="Ccedilla" unicode="&#xc7;" horiz-adv-x="1212" 
d="M983 514l160 -49q-53 -247 -185.5 -368.5t-322.5 -121.5q-167 0 -285.5 81.5t-194 261.5t-75.5 425q0 242 75.5 409.5t204.5 253t288 85.5q174 0 299 -108.5t175 -318.5l-156 -45q-80 306 -321 306q-120 0 -208 -61.5t-140.5 -191.5t-52.5 -329q0 -301 106 -451.5
t282 -150.5q130 0 224.5 92.5t126.5 280.5zM511 -154l43 177h110l-28 -107q68 -10 104.5 -51t36.5 -99q0 -78 -62.5 -132.5t-170.5 -54.5q-71 0 -122 12l9 117q53 -4 81 -4q67 0 97.5 21t30.5 54q0 31 -27.5 48.5t-101.5 18.5z" />
    <glyph glyph-name="Eacute" unicode="&#xc9;" horiz-adv-x="1120" 
d="M133 0v1466h869v-173h-710v-449h665v-172h-665v-499h738v-173h-897zM463 1566l109 280h193l-180 -280h-122z" />
    <glyph glyph-name="Ntilde" unicode="&#xd1;" horiz-adv-x="1212" 
d="M125 0v1466h163l632 -1151v1151h152v-1466h-163l-631 1152v-1152h-153zM346 1590q-1 107 48 168q48 60 118 60q52 0 139 -54q48 -30 77 -30q27 0 40.5 17.5t19.5 69.5h107q-3 -115 -48.5 -171.5t-113.5 -56.5q-50 0 -135 56q-55 36 -80 36q-27 0 -45 -23.5t-18 -71.5
h-109z" />
    <glyph glyph-name="Odieresis" unicode="&#xd6;" horiz-adv-x="1307" 
d="M85 714q0 375 165 576.5t411 201.5q159 0 290 -90t207.5 -261.5t76.5 -408.5q0 -326 -148 -531q-163 -226 -427 -226q-266 0 -428 232q-147 210 -147 507zM249 711q0 -271 119.5 -420.5t290.5 -149.5q175 0 293.5 151t118.5 444q0 189 -61 338q-47 114 -141.5 182.5
t-206.5 68.5q-180 0 -296.5 -150t-116.5 -464zM430 1642v205h154v-205h-154zM736 1642v205h154v-205h-154z" />
    <glyph glyph-name="Udieresis" unicode="&#xdc;" horiz-adv-x="1212" 
d="M915 1466h160v-847q0 -213 -41.5 -349.5t-151 -215.5t-278.5 -79q-238 0 -356.5 142t-118.5 502v847h159v-846q0 -199 31 -288t101.5 -135.5t171.5 -46.5q170 0 246.5 96t76.5 374v846zM371 1642v205h154v-205h-154zM677 1642v205h154v-205h-154z" />
    <glyph glyph-name="aacute" unicode="&#xe1;" 
d="M676 131q-74 -77 -154 -116t-166 -39q-136 0 -217 82t-81 221q0 92 38 163t104 111t200 59q180 26 264 62l1 46q0 109 -39 153q-55 64 -169 64q-103 0 -154 -42.5t-75 -159.5l-145 24q31 171 125.5 249t270.5 78q137 0 215 -51.5t98.5 -127.5t20.5 -222v-240
q0 -252 9.5 -317.5t37.5 -127.5h-154q-23 55 -30 131zM664 533q-81 -40 -241 -68q-93 -16 -130 -36.5t-57.5 -58t-20.5 -86.5q0 -76 47 -121.5t130 -45.5q79 0 143.5 41t96.5 109.5t32 199.5v66zM377 1194l109 280h193l-180 -280h-122z" />
    <glyph glyph-name="agrave" unicode="&#xe0;" 
d="M676 131q-74 -77 -154 -116t-166 -39q-136 0 -217 82t-81 221q0 92 38 163t104 111t200 59q180 26 264 62l1 46q0 109 -39 153q-55 64 -169 64q-103 0 -154 -42.5t-75 -159.5l-145 24q31 171 125.5 249t270.5 78q137 0 215 -51.5t98.5 -127.5t20.5 -222v-240
q0 -252 9.5 -317.5t37.5 -127.5h-154q-23 55 -30 131zM664 533q-81 -40 -241 -68q-93 -16 -130 -36.5t-57.5 -58t-20.5 -86.5q0 -76 47 -121.5t130 -45.5q79 0 143.5 41t96.5 109.5t32 199.5v66zM559 1194h-119l-189 280h198z" />
    <glyph glyph-name="acircumflex" unicode="&#xe2;" 
d="M676 131q-74 -77 -154 -116t-166 -39q-136 0 -217 82t-81 221q0 92 38 163t104 111t200 59q180 26 264 62l1 46q0 109 -39 153q-55 64 -169 64q-103 0 -154 -42.5t-75 -159.5l-145 24q31 171 125.5 249t270.5 78q137 0 215 -51.5t98.5 -127.5t20.5 -222v-240
q0 -252 9.5 -317.5t37.5 -127.5h-154q-23 55 -30 131zM664 533q-81 -40 -241 -68q-93 -16 -130 -36.5t-57.5 -58t-20.5 -86.5q0 -76 47 -121.5t130 -45.5q79 0 143.5 41t96.5 109.5t32 199.5v66zM491 1364l-92 -170h-169l177 280h158l184 -280h-167z" />
    <glyph glyph-name="adieresis" unicode="&#xe4;" 
d="M676 131q-74 -77 -154 -116t-166 -39q-136 0 -217 82t-81 221q0 92 38 163t104 111t200 59q180 26 264 62l1 46q0 109 -39 153q-55 64 -169 64q-103 0 -154 -42.5t-75 -159.5l-145 24q31 171 125.5 249t270.5 78q137 0 215 -51.5t98.5 -127.5t20.5 -222v-240
q0 -252 9.5 -317.5t37.5 -127.5h-154q-23 55 -30 131zM664 533q-81 -40 -241 -68q-93 -16 -130 -36.5t-57.5 -58t-20.5 -86.5q0 -76 47 -121.5t130 -45.5q79 0 143.5 41t96.5 109.5t32 199.5v66zM229 1270v205h154v-205h-154zM535 1270v205h154v-205h-154z" />
    <glyph glyph-name="atilde" unicode="&#xe3;" 
d="M676 131q-74 -77 -154 -116t-166 -39q-136 0 -217 82t-81 221q0 92 38 163t104 111t200 59q180 26 264 62l1 46q0 109 -39 153q-55 64 -169 64q-103 0 -154 -42.5t-75 -159.5l-145 24q31 171 125.5 249t270.5 78q137 0 215 -51.5t98.5 -127.5t20.5 -222v-240
q0 -252 9.5 -317.5t37.5 -127.5h-154q-23 55 -30 131zM664 533q-81 -40 -241 -68q-93 -16 -130 -36.5t-57.5 -58t-20.5 -86.5q0 -76 47 -121.5t130 -45.5q79 0 143.5 41t96.5 109.5t32 199.5v66zM185 1219q-1 107 48 168q48 60 118 60q52 0 139 -54q48 -30 77 -30
q27 0 40.5 17.5t19.5 69.5h107q-3 -115 -48.5 -171.5t-113.5 -56.5q-50 0 -135 56q-55 36 -80 36q-27 0 -45 -23.5t-18 -71.5h-109z" />
    <glyph glyph-name="aring" unicode="&#xe5;" 
d="M676 131q-74 -77 -154 -116t-166 -39q-136 0 -217 82t-81 221q0 92 38 163t104 111t200 59q180 26 264 62l1 46q0 109 -39 153q-55 64 -169 64q-103 0 -154 -42.5t-75 -159.5l-145 24q31 171 125.5 249t270.5 78q137 0 215 -51.5t98.5 -127.5t20.5 -222v-240
q0 -252 9.5 -317.5t37.5 -127.5h-154q-23 55 -30 131zM664 533q-81 -40 -241 -68q-93 -16 -130 -36.5t-57.5 -58t-20.5 -86.5q0 -76 47 -121.5t130 -45.5q79 0 143.5 41t96.5 109.5t32 199.5v66zM312 1338q0 75 44.5 127t103.5 52q58 0 102.5 -52t44.5 -131
q0 -80 -44 -131.5t-103 -51.5t-103.5 52t-44.5 135zM375 1337q0 -49 26 -80t60 -31t60.5 31t26.5 78t-26 78t-60 31q-35 0 -61 -31t-26 -76z" />
    <glyph glyph-name="ccedilla" unicode="&#xe7;" horiz-adv-x="840" 
d="M679 389l145 -23q-25 -190 -125.5 -290t-241.5 -100q-171 0 -281.5 140.5t-110.5 415.5q0 277 111.5 415.5t286.5 138.5q135 0 227.5 -84t118.5 -252l-143 -27q-21 108 -73 161.5t-125 53.5q-109 0 -180.5 -96.5t-71.5 -306.5q0 -217 68.5 -314t175.5 -97
q84 0 143.5 64.5t75.5 200.5zM349 -154l43 177h110l-28 -107q68 -10 104.5 -51t36.5 -99q0 -78 -62.5 -132.5t-170.5 -54.5q-71 0 -122 12l9 117q53 -4 81 -4q67 0 97.5 21t30.5 54q0 31 -27.5 48.5t-101.5 18.5z" />
    <glyph glyph-name="eacute" unicode="&#xe9;" 
d="M704 342l152 -23q-38 -170 -137.5 -256.5t-246.5 -86.5q-185 0 -299.5 140.5t-114.5 405.5q0 275 115.5 419.5t292.5 144.5q169 0 282 -142t113 -411l-1 -48h-650q9 -179 83 -270t180 -91q166 0 231 218zM219 633h486q-10 138 -59 206q-71 99 -181 99q-99 0 -169 -82.5
t-77 -222.5zM377 1194l109 280h193l-180 -280h-122z" />
    <glyph glyph-name="egrave" unicode="&#xe8;" 
d="M704 342l152 -23q-38 -170 -137.5 -256.5t-246.5 -86.5q-185 0 -299.5 140.5t-114.5 405.5q0 275 115.5 419.5t292.5 144.5q169 0 282 -142t113 -411l-1 -48h-650q9 -179 83 -270t180 -91q166 0 231 218zM219 633h486q-10 138 -59 206q-71 99 -181 99q-99 0 -169 -82.5
t-77 -222.5zM559 1194h-119l-189 280h198z" />
    <glyph glyph-name="ecircumflex" unicode="&#xea;" 
d="M704 342l152 -23q-38 -170 -137.5 -256.5t-246.5 -86.5q-185 0 -299.5 140.5t-114.5 405.5q0 275 115.5 419.5t292.5 144.5q169 0 282 -142t113 -411l-1 -48h-650q9 -179 83 -270t180 -91q166 0 231 218zM219 633h486q-10 138 -59 206q-71 99 -181 99q-99 0 -169 -82.5
t-77 -222.5zM461 1364l-92 -170h-169l177 280h158l184 -280h-167z" />
    <glyph glyph-name="edieresis" unicode="&#xeb;" 
d="M704 342l152 -23q-38 -170 -137.5 -256.5t-246.5 -86.5q-185 0 -299.5 140.5t-114.5 405.5q0 275 115.5 419.5t292.5 144.5q169 0 282 -142t113 -411l-1 -48h-650q9 -179 83 -270t180 -91q166 0 231 218zM219 633h486q-10 138 -59 206q-71 99 -181 99q-99 0 -169 -82.5
t-77 -222.5zM230 1270v205h154v-205h-154zM536 1270v205h154v-205h-154z" />
    <glyph glyph-name="iacute" unicode="&#xed;" horiz-adv-x="467" 
d="M166 0v1062h147v-1062h-147zM158 1194l109 280h193l-180 -280h-122z" />
    <glyph glyph-name="igrave" unicode="&#xec;" horiz-adv-x="467" 
d="M166 0v1062h147v-1062h-147zM339 1194h-119l-189 280h198z" />
    <glyph glyph-name="icircumflex" unicode="&#xee;" horiz-adv-x="467" 
d="M166 0v1062h147v-1062h-147zM241 1364l-92 -170h-169l177 280h158l184 -280h-167z" />
    <glyph glyph-name="idieresis" unicode="&#xef;" horiz-adv-x="467" 
d="M166 0v1062h147v-1062h-147zM10 1270v205h154v-205h-154zM316 1270v205h154v-205h-154z" />
    <glyph glyph-name="ntilde" unicode="&#xf1;" 
d="M108 0v1062h133v-151q48 88 117.5 131.5t159.5 43.5q70 0 129.5 -27.5t96 -72t54.5 -115.5t18 -218v-653h-148v646q0 117 -20 171t-62.5 83.5t-98.5 29.5q-106 0 -169 -79t-63 -271v-580h-147zM212 1219q-1 107 48 168q48 60 118 60q52 0 139 -54q48 -30 77 -30
q27 0 40.5 17.5t19.5 69.5h107q-3 -115 -48.5 -171.5t-113.5 -56.5q-50 0 -135 56q-55 36 -80 36q-27 0 -45 -23.5t-18 -71.5h-109z" />
    <glyph glyph-name="oacute" unicode="&#xf3;" 
d="M53 531q0 275 115.5 415t292.5 140q174 0 291 -140t117 -404q0 -286 -115 -426t-293 -140q-175 0 -291.5 140.5t-116.5 414.5zM204 531q0 -206 75 -306.5t186 -100.5q104 0 178.5 101.5t74.5 305.5q0 205 -75 305.5t-186 100.5q-105 0 -179 -101t-74 -305zM379 1194
l109 280h193l-180 -280h-122z" />
    <glyph glyph-name="ograve" unicode="&#xf2;" 
d="M53 531q0 275 115.5 415t292.5 140q174 0 291 -140t117 -404q0 -286 -115 -426t-293 -140q-175 0 -291.5 140.5t-116.5 414.5zM204 531q0 -206 75 -306.5t186 -100.5q104 0 178.5 101.5t74.5 305.5q0 205 -75 305.5t-186 100.5q-105 0 -179 -101t-74 -305zM560 1194h-119
l-189 280h198z" />
    <glyph glyph-name="ocircumflex" unicode="&#xf4;" 
d="M53 531q0 275 115.5 415t292.5 140q174 0 291 -140t117 -404q0 -286 -115 -426t-293 -140q-175 0 -291.5 140.5t-116.5 414.5zM204 531q0 -206 75 -306.5t186 -100.5q104 0 178.5 101.5t74.5 305.5q0 205 -75 305.5t-186 100.5q-105 0 -179 -101t-74 -305zM473 1364
l-92 -170h-169l177 280h158l184 -280h-167z" />
    <glyph glyph-name="odieresis" unicode="&#xf6;" 
d="M53 531q0 275 115.5 415t292.5 140q174 0 291 -140t117 -404q0 -286 -115 -426t-293 -140q-175 0 -291.5 140.5t-116.5 414.5zM204 531q0 -206 75 -306.5t186 -100.5q104 0 178.5 101.5t74.5 305.5q0 205 -75 305.5t-186 100.5q-105 0 -179 -101t-74 -305zM231 1270v205
h154v-205h-154zM537 1270v205h154v-205h-154z" />
    <glyph glyph-name="otilde" unicode="&#xf5;" 
d="M53 531q0 275 115.5 415t292.5 140q174 0 291 -140t117 -404q0 -286 -115 -426t-293 -140q-175 0 -291.5 140.5t-116.5 414.5zM204 531q0 -206 75 -306.5t186 -100.5q104 0 178.5 101.5t74.5 305.5q0 205 -75 305.5t-186 100.5q-105 0 -179 -101t-74 -305zM186 1219
q-1 107 48 168q48 60 118 60q52 0 139 -54q48 -30 77 -30q27 0 40.5 17.5t19.5 69.5h107q-3 -115 -48.5 -171.5t-113.5 -56.5q-50 0 -135 56q-55 36 -80 36q-27 0 -45 -23.5t-18 -71.5h-109z" />
    <glyph glyph-name="uacute" unicode="&#xfa;" 
d="M679 0v156q-51 -90 -120 -135t-156 -45q-103 0 -176 55.5t-97.5 140.5t-24.5 232v658h147v-589q0 -164 16.5 -219.5t61 -89t101.5 -33.5q106 0 174 87q58 75 58 275v569h148v-1062h-132zM376 1194l109 280h193l-180 -280h-122z" />
    <glyph glyph-name="ugrave" unicode="&#xf9;" 
d="M679 0v156q-51 -90 -120 -135t-156 -45q-103 0 -176 55.5t-97.5 140.5t-24.5 232v658h147v-589q0 -164 16.5 -219.5t61 -89t101.5 -33.5q106 0 174 87q58 75 58 275v569h148v-1062h-132zM557 1194h-119l-189 280h198z" />
    <glyph glyph-name="ucircumflex" unicode="&#xfb;" 
d="M679 0v156q-51 -90 -120 -135t-156 -45q-103 0 -176 55.5t-97.5 140.5t-24.5 232v658h147v-589q0 -164 16.5 -219.5t61 -89t101.5 -33.5q106 0 174 87q58 75 58 275v569h148v-1062h-132zM459 1364l-92 -170h-169l177 280h158l184 -280h-167z" />
    <glyph glyph-name="udieresis" unicode="&#xfc;" 
d="M679 0v156q-51 -90 -120 -135t-156 -45q-103 0 -176 55.5t-97.5 140.5t-24.5 232v658h147v-589q0 -164 16.5 -219.5t61 -89t101.5 -33.5q106 0 174 87q58 75 58 275v569h148v-1062h-132zM228 1270v205h154v-205h-154zM534 1270v205h154v-205h-154z" />
    <glyph glyph-name="dagger" unicode="&#x2020;" 
d="M385 -346v1212h-328v160h328v406h147v-406h330v-160h-330v-1212h-147z" />
    <glyph glyph-name="degree" unicode="&#xb0;" horiz-adv-x="819" 
d="M128 1214q0 115 81.5 196t195.5 81q116 0 197 -81t81 -196t-81.5 -196.5t-196.5 -81.5q-114 0 -195.5 81t-81.5 197zM237 1214q0 -70 49.5 -119.5t119.5 -49.5q69 0 118.5 49.5t49.5 119.5t-49.5 119.5t-118.5 49.5q-70 0 -119.5 -49.5t-49.5 -119.5z" />
    <glyph glyph-name="cent" unicode="&#xa2;" 
d="M608 894l-183 -766q28 -9 51 -9q82 0 145.5 70.5t77.5 199.5l147 -20q-28 -190 -131 -293.5t-238 -103.5q-39 0 -84 14l-96 -395l-92 32l94 398q-94 55 -154 183.5t-60 325.5q0 185 50 307t141.5 185.5t199.5 63.5q28 0 77 -7l93 387l90 -32l-92 -387q151 -77 185 -297
l-143 -27q-21 113 -78 171zM520 940q-25 3 -40 3q-104 0 -174 -98t-70 -307q0 -269 102 -361z" />
    <glyph glyph-name="sterling" unicode="&#xa3;" 
d="M323 809h258v-148h-233q16 -44 16 -86q0 -89 -34.5 -186.5t-111.5 -197.5q65 22 118 22q68 0 153 -25q140 -41 191 -41q60 0 157 56l48 -165q-123 -64 -197 -64q-34 0 -70 8q-24 6 -107 37q-86 32 -113 38q-37 9 -71 9q-132 0 -250 -94l-57 173q86 57 137 157.5t51 234.5
q0 61 -13 124h-161v148h126q-42 177 -42 264q0 191 106.5 304.5t265.5 113.5q144 0 242.5 -97t121.5 -282l-147 -27q-13 123 -75.5 190.5t-143.5 67.5q-88 0 -150 -69t-62 -176q0 -111 47 -289z" />
    <glyph glyph-name="section" unicode="&#xa7;" 
d="M114 -70l149 26q24 -132 75 -183.5t134 -51.5q79 0 128.5 50t49.5 124q0 29 -9.5 56t-29.5 51q-59 75 -269 232q-154 115 -200 180q-78 108 -78 230q0 100 50.5 176.5t133.5 106.5q-52 62 -78.5 124t-26.5 124q0 135 86 225.5t219 90.5q141 0 230 -86.5t107 -260.5
l-153 -19q-18 124 -62 171t-116 47q-70 0 -118.5 -47.5t-48.5 -113.5q0 -28 11.5 -56.5t33.5 -57.5q44 -58 236 -200q165 -124 214 -188q73 -96 73 -216q0 -108 -55 -186q-36 -51 -132 -100q66 -61 98.5 -131t32.5 -150q0 -143 -92.5 -235.5t-237.5 -92.5
q-146 0 -240.5 92.5t-114.5 268.5zM594 244q59 37 90 87t31 100q0 58 -42.5 120t-184.5 169q-113 84 -168 138q-68 -48 -95 -94t-27 -100q0 -63 38 -120.5t169 -151.5q113 -81 189 -148z" />
    <glyph glyph-name="bullet" unicode="&#x2022;" horiz-adv-x="588" 
d="M92 718q0 109 62.5 181t145.5 72t145 -72t62 -181q0 -110 -62.5 -182t-144.5 -72q-83 0 -145.5 72.5t-62.5 181.5z" />
    <glyph glyph-name="paragraph" unicode="&#xb6;" horiz-adv-x="901" 
d="M337 -407v1045q-148 9 -240 117t-92 289q0 133 48 230t132.5 144.5t207.5 47.5h518v-173h-117v-1700h-140v1700h-182v-1700h-135z" />
    <glyph glyph-name="germandbls" unicode="&#xdf;" horiz-adv-x="1026" 
d="M128 0v999q0 191 38.5 287.5t122 150.5t190.5 54q133 0 218 -82.5t85 -202.5q0 -50 -13.5 -103.5t-52.5 -136.5q-58 -124 -58 -167q0 -37 22 -73q15 -26 95 -89q125 -100 163 -167t38 -157q0 -147 -87 -242.5t-212 -95.5q-97 0 -176.5 63t-121.5 178l127 72
q73 -165 166 -165q61 0 107 50.5t46 123.5q0 50 -19 84t-99 100q-128 107 -164.5 165t-36.5 123q0 39 11 78t50 121q71 151 71 219q0 65 -46.5 110.5t-116.5 45.5q-97 0 -148.5 -72t-51.5 -280v-991h-147z" />
    <glyph glyph-name="registered" unicode="&#xae;" horiz-adv-x="1237" 
d="M623 1491q263 0 441 -226t178 -529q0 -211 -88 -388t-230.5 -271.5t-300.5 -94.5q-263 0 -441 225.5t-178 528.5q0 212 88 389t230.5 271.5t300.5 94.5zM623 1366q-221 0 -374 -196q-142 -182 -142 -434q0 -271 162 -457q150 -172 354 -172q220 0 374 196
q142 181 142 433q0 271 -162 457q-150 173 -354 173zM351 319v812h230q118 0 168 -22t83 -76t33 -122q0 -94 -53.5 -157.5t-136.5 -71.5q37 -19 59 -46q42 -52 96 -158l80 -159h-130l-60 128q-68 147 -109 187q-31 30 -88 30h-64v-345h-108zM459 776h131q88 0 124.5 31.5
t36.5 92.5q0 39 -18.5 68t-47.5 41t-104 12h-122v-245z" />
    <glyph glyph-name="copyright" unicode="&#xa9;" horiz-adv-x="1237" 
d="M623 1491q263 0 441 -226t178 -529q0 -211 -88 -388t-230.5 -271.5t-300.5 -94.5q-263 0 -441 225.5t-178 528.5q0 212 88 389t230.5 271.5t300.5 94.5zM623 1366q-221 0 -374 -196q-142 -182 -142 -434q0 -271 162 -457q150 -172 354 -172q220 0 374 196
q142 181 142 433q0 271 -162 457q-150 173 -354 173zM822 614l100 -36q-25 -129 -106.5 -201.5t-190.5 -72.5q-140 0 -232.5 111t-92.5 319t91.5 317t240.5 109q103 0 177 -62t101 -174l-98 -29q-25 76 -73.5 114.5t-110.5 38.5q-93 0 -155 -81t-62 -240q0 -152 59 -229
t147 -77q72 0 129 50.5t76 142.5z" />
    <glyph glyph-name="trademark" unicode="&#x2122;" horiz-adv-x="1679" 
d="M402 651v694h-217v121h546v-121h-218v-694h-111zM806 651v815h164l169 -651l163 651h160v-815h-101v684l-173 -684h-100l-180 694v-694h-102z" />
    <glyph glyph-name="acute" unicode="&#xb4;" horiz-adv-x="559" 
d="M182 1194l109 280h193l-180 -280h-122z" />
    <glyph glyph-name="dieresis" unicode="&#xa8;" horiz-adv-x="559" 
d="M50 1270v205h154v-205h-154zM356 1270v205h154v-205h-154z" />
    <glyph glyph-name="notequal" unicode="&#x2260;" horiz-adv-x="1124" 
d="M495 417l-194 -445h-136l195 445h-282v168h356l122 277h-478v168h551l196 444h134l-195 -444h282v-168h-356l-121 -277h477v-168h-551z" />
    <glyph glyph-name="AE" unicode="&#xc6;" horiz-adv-x="1679" 
d="M1 0l578 1466h987v-173h-605v-451h562v-172h-562v-497h627v-173h-786v423h-465l-164 -423h-172zM405 595h397v698h-120z" />
    <glyph glyph-name="Oslash" unicode="&#xd8;" horiz-adv-x="1307" 
d="M1029 1332l137 188l82 -84l-145 -198q74 -134 101.5 -244t27.5 -260q0 -240 -78 -411.5t-209.5 -259.5t-289.5 -88q-102 0 -185.5 33.5t-178.5 120.5l-138 -188l-81 84l144 197q-81 153 -107.5 257t-26.5 248q0 243 78.5 417t207.5 260.5t292 86.5q103 0 187.5 -34.5
t181.5 -124.5zM930 1197q-77 76 -135.5 102t-134.5 26q-179 0 -296.5 -149.5t-117.5 -445.5q0 -111 15 -188.5t58 -179.5zM998 1094l-610 -832q65 -66 128.5 -93.5t138.5 -27.5q175 0 293.5 151t118.5 437q0 206 -69 365z" />
    <glyph glyph-name="infinity" unicode="&#x221e;" horiz-adv-x="1460" 
d="M689 812q105 132 164 174q80 58 169 58q105 0 196.5 -76t91.5 -245q0 -118 -34 -185.5t-106 -108.5t-148 -41q-89 0 -169 57q-59 43 -164 175q-136 -171 -289 -171q-101 0 -173.5 76.5t-72.5 190.5q0 113 72.5 190t173.5 77q153 0 289 -171zM758 717q87 -135 159 -185
q46 -33 103 -33q76 0 127.5 56t51.5 158q0 106 -52.5 162t-130.5 56q-49 0 -92 -28q-58 -39 -166 -186zM620 716q-80 100 -128 128.5t-92 28.5q-58 0 -96.5 -41t-38.5 -113q0 -71 40 -113.5t97 -42.5q101 0 218 153z" />
    <glyph glyph-name="plusminus" unicode="&#xb1;" horiz-adv-x="1124" 
d="M477 260v403h-399v167h399v399h170v-399h399v-167h-399v-403h-170zM1046 0h-968v168h968v-168z" />
    <glyph glyph-name="lessequal" unicode="&#x2264;" horiz-adv-x="1124" 
d="M77 762v168l971 410v-180l-770 -315l770 -319v-179zM1046 106h-968v167h968v-167z" />
    <glyph glyph-name="greaterequal" unicode="&#x2265;" horiz-adv-x="1124" 
d="M1048 762l-971 -415v179l769 319l-769 315v180l971 -410v-168zM1046 106h-968v167h968v-167z" />
    <glyph glyph-name="yen" unicode="&#xa5;" 
d="M389 0v325h-341v139h341v143h-341v148h280l-333 711h164l238 -516q41 -90 62 -154q18 52 68 163l224 507h175l-332 -711h280v-148h-338v-143h338v-139h-338v-325h-147z" />
    <glyph glyph-name="mu" unicode="&#xb5;" horiz-adv-x="1180" 
d="M1018 1062v-1062h-161v126q-52 -80 -103 -110q-70 -41 -163 -41q-83 0 -147 33q-48 25 -106 99v-514h-178v1469h178v-450q0 -245 26 -317.5t84.5 -114.5t134.5 -42q80 0 143 44t89 113.5t26 313.5v453h177z" />
    <glyph glyph-name="partialdiff" unicode="&#x2202;" horiz-adv-x="1012" 
d="M426 1138l-135 60q70 157 168 225t192 68q76 0 137.5 -39.5t92.5 -90.5q47 -79 69.5 -187t22.5 -248q0 -288 -86.5 -512.5t-233.5 -331.5t-289 -107q-137 0 -222.5 91t-85.5 256q0 226 153 387q197 207 649 215q-4 168 -24 256t-68 135.5t-113 47.5q-62 0 -121 -49.5
t-106 -175.5zM854 796q-244 -14 -357.5 -68t-187 -176.5t-73.5 -248.5q0 -83 51 -137t119 -54q75 0 160 55q117 76 190.5 234.5t97.5 394.5z" />
    <glyph glyph-name="summation" unicode="&#x2211;" horiz-adv-x="1460" 
d="M139 1491h1237v-164h-988l607 -775l-649 -822h1040v-161h-1264v187l620 788l-603 772v175z" />
    <glyph glyph-name="product" unicode="&#x220f;" horiz-adv-x="1686" 
d="M161 1491h1362v-1922h-191v1748h-978v-1748h-193v1922z" />
    <glyph glyph-name="pi" unicode="&#x3c0;" horiz-adv-x="1124" 
d="M0 1063h1124v-158h-162v-905h-189v905h-426v-905h-188v905h-159v158z" />
    <glyph glyph-name="integral" unicode="&#x222b;" horiz-adv-x="561" 
d="M201 948l17 531q9 153 50 254q27 65 74.5 97.5t92.5 32.5q50 0 87.5 -33.5t37.5 -73.5q0 -47 -26.5 -75.5t-65.5 -28.5q-35 0 -76 36q-23 20 -40 20t-28.5 -14.5t-11.5 -49.5q0 -42 9 -145q37 -410 37 -665q0 -67 -16 -588q-8 -295 -90 -399q-54 -67 -134 -67
q-52 0 -85 34t-33 87q0 45 25.5 72t64.5 27q40 0 69 -32t49 -32q17 0 28 14t11 47q0 42 -9 120q-37 315 -37 831z" />
    <glyph glyph-name="ordfeminine" unicode="&#xaa;" horiz-adv-x="621" 
d="M453 853q-100 -107 -210 -107q-87 0 -144 59t-57 159q0 84 39 134t109 69l173 34q60 14 79 20q-1 85 -22 111q-34 42 -106 42q-122 0 -137 -125l-113 34q11 95 76 151.5t176 56.5q127 0 186 -58q58 -59 58 -184v-240l-1 -59q0 -135 33 -186h-121q-16 40 -18 89zM440 1104
q-43 -14 -157 -36q-71 -13 -92 -34q-27 -28 -27 -70q0 -43 29.5 -70.5t75.5 -27.5q57 0 102 36t62 95q7 23 7 107z" />
    <glyph glyph-name="ordmasculine" unicode="&#xba;" horiz-adv-x="612" 
d="M306 1491q115 0 186 -90q83 -106 83 -286q0 -179 -83 -286q-70 -89 -186 -89q-115 0 -192 96t-77 275q0 184 83 290q70 90 186 90zM306 1358q-66 0 -106.5 -57t-40.5 -187q0 -126 41.5 -184t106.5 -58q64 0 105.5 58t41.5 186q0 126 -42 184t-106 58z" />
    <glyph glyph-name="Omega" unicode="&#x2126;" horiz-adv-x="1573" 
d="M496 160q-108 67 -165 130q-87 96 -134 225.5t-47 286.5q0 196 79.5 360.5t231 252.5t347.5 88q336 0 516 -254q131 -186 131 -448q0 -168 -54 -297.5t-141 -222.5q-53 -58 -149 -121l364 6v-166h-575v177q80 40 124 78q72 61 122 145t75.5 179t25.5 198
q0 138 -49.5 277.5t-150 212.5t-243.5 73q-191 0 -296 -120q-146 -169 -146 -440q0 -217 91 -372.5t251 -227.5v-180h-577v168z" />
    <glyph glyph-name="ae" unicode="&#xe6;" horiz-adv-x="1493" 
d="M1419 325q-42 -173 -141.5 -261t-242.5 -88q-101 0 -180 47t-144 151q-164 -198 -362 -198q-133 0 -214.5 85t-81.5 218q0 90 41 163.5t110.5 112.5t233.5 65q123 20 207 49l1 41q0 129 -44.5 178t-148.5 49q-109 0 -159.5 -42t-73.5 -162l-143 21q34 178 125.5 255
t254.5 77q121 0 192 -36t106 -107q108 143 279 143q112 0 196 -59t138 -188t54 -294l-1 -60h-629q1 -148 29.5 -213t90 -106.5t132.5 -41.5q80 0 139.5 58t81.5 167zM792 633h479q-12 160 -76 232t-159 72q-102 0 -169 -78t-75 -226zM647 533q-65 -35 -263 -73
q-90 -17 -125 -50q-50 -48 -50 -124q0 -75 45.5 -121.5t123.5 -46.5q95 0 166 57t92 146q12 50 11 212z" />
    <glyph glyph-name="oslash" unicode="&#xf8;" horiz-adv-x="1026" 
d="M761 999l81 128l79 -70l-88 -138q53 -89 72 -163q24 -97 24 -225q0 -277 -116 -416t-299 -139q-125 0 -225 80l-86 -135l-77 71l89 141q-53 74 -72 148q-30 111 -30 235q0 286 115 428t290 142q63 0 119 -19.5t124 -67.5zM678 867q-75 70 -157 70q-106 0 -181.5 -101
t-75.5 -301q0 -153 43 -255zM739 770l-367 -583q63 -63 144 -63q112 0 187 100.5t75 309.5q0 73 -8 122t-31 114z" />
    <glyph glyph-name="questiondown" unicode="&#xbf;" horiz-adv-x="1026" 
d="M604 1062v-205h-168v205h168zM595 701l1 -51q0 -145 -47 -242q-34 -71 -144 -189q-75 -80 -98 -129t-23 -107q0 -111 70 -187.5t162 -76.5t156.5 71t84.5 225l151 -21q-21 -211 -125 -317t-266 -106q-164 0 -274 112t-110 287q0 97 36 177t145 197q91 99 114 157t25 200
h142z" />
    <glyph glyph-name="exclamdown" unicode="&#xa1;" horiz-adv-x="559" 
d="M364 1062v-205h-169v205h169zM326 697l45 -776v-325h-183v325l42 776h96z" />
    <glyph glyph-name="logicalnot" unicode="&#xac;" horiz-adv-x="981" 
d="M886 424h-140v438h-654v168h794v-606z" />
    <glyph glyph-name="radical" unicode="&#x221a;" horiz-adv-x="1124" 
d="M1050 1869h74l-312 -1947l-496 1021l-198 -91l-34 64l301 151l405 -823z" />
    <glyph glyph-name="florin" unicode="&#x192;" 
d="M35 -405l28 155q83 -22 125 -22q44 0 68 28t37 124l145 1042h-164l19 140h165l20 133q20 135 47.5 188.5t74 81t111.5 27.5t176 -38l-29 -153q-84 24 -125 24q-47 0 -70 -28t-38 -132l-16 -103h167l-20 -140h-168l-156 -1092q-22 -150 -72.5 -205.5t-140.5 -55.5
q-78 0 -184 26z" />
    <glyph glyph-name="approxequal" unicode="&#x2248;" horiz-adv-x="1124" 
d="M51 738v205q106 120 278 120q60 0 125.5 -17t188.5 -70q69 -30 103.5 -38.5t69.5 -8.5q65 0 134.5 39t123.5 98v-212q-64 -60 -129.5 -87t-147.5 -27q-60 0 -114 13.5t-173 66.5q-119 54 -198 54q-64 0 -120.5 -27.5t-140.5 -108.5zM51 376v205q106 120 278 120
q60 0 125.5 -17t188.5 -70q69 -29 103.5 -38t69.5 -9q65 0 134.5 39t123.5 98v-212q-64 -60 -129.5 -87t-147.5 -27q-60 0 -114 14t-173 67t-198 53q-64 0 -120.5 -27.5t-140.5 -108.5z" />
    <glyph glyph-name="Delta" unicode="&#x2206;" horiz-adv-x="1253" 
d="M1226 0h-1200l628 1387zM990 82l-399 967l-440 -967h839z" />
    <glyph glyph-name="guillemotleft" unicode="&#xab;" 
d="M276 528l213 -456h-121l-261 456l261 456h122zM593 528l216 -456h-124l-257 456l257 456h124z" />
    <glyph glyph-name="guillemotright" unicode="&#xbb;" 
d="M646 528l-214 456h121l261 -456l-261 -456h-120zM328 528l-216 456h124l257 -456l-257 -456h-124z" />
    <glyph glyph-name="ellipsis" unicode="&#x2026;" horiz-adv-x="1679" 
d="M196 0v205h168v-205h-168zM756 0v205h168v-205h-168zM1316 0v205h168v-205h-168z" />
    <glyph glyph-name="nonbreakingspace" unicode="&#xa0;" horiz-adv-x="467" 
 />
    <glyph glyph-name="Agrave" unicode="&#xc0;" horiz-adv-x="1120" 
d="M-2 0l462 1466h171l492 -1466h-182l-140 444h-502l-132 -444h-169zM345 602h407l-125 406q-58 187 -85 304q-23 -141 -65 -280zM662 1566h-119l-189 280h198z" />
    <glyph glyph-name="Atilde" unicode="&#xc3;" horiz-adv-x="1120" 
d="M-2 0l462 1466h171l492 -1466h-182l-140 444h-502l-132 -444h-169zM345 602h407l-125 406q-58 187 -85 304q-23 -141 -65 -280zM286 1590q-1 107 48 168q48 60 118 60q52 0 139 -54q48 -30 77 -30q27 0 40.5 17.5t19.5 69.5h107q-3 -115 -48.5 -171.5t-113.5 -56.5
q-50 0 -135 56q-55 36 -80 36q-27 0 -45 -23.5t-18 -71.5h-109z" />
    <glyph glyph-name="Otilde" unicode="&#xd5;" horiz-adv-x="1307" 
d="M85 714q0 375 165 576.5t411 201.5q159 0 290 -90t207.5 -261.5t76.5 -408.5q0 -326 -148 -531q-163 -226 -427 -226q-266 0 -428 232q-147 210 -147 507zM249 711q0 -271 119.5 -420.5t290.5 -149.5q175 0 293.5 151t118.5 444q0 189 -61 338q-47 114 -141.5 182.5
t-206.5 68.5q-180 0 -296.5 -150t-116.5 -464zM385 1590q-1 107 48 168q48 60 118 60q52 0 139 -54q48 -30 77 -30q27 0 40.5 17.5t19.5 69.5h107q-3 -115 -48.5 -171.5t-113.5 -56.5q-50 0 -135 56q-55 36 -80 36q-27 0 -45 -23.5t-18 -71.5h-109z" />
    <glyph glyph-name="OE" unicode="&#x152;" horiz-adv-x="1679" 
d="M1626 173v-173h-707v212q-55 -118 -136.5 -177.5t-189.5 -59.5q-211 0 -337 172q-150 206 -150 589q0 256 67 430t171 249.5t249 75.5q108 0 189.5 -55.5t136.5 -167.5v198h682v-173h-533v-448h491v-172h-491v-500h558zM590 1334q-131 0 -225.5 -141.5t-94.5 -459.5
q0 -317 95 -459.5t229 -142.5q128 0 222 142.5t94 459.5q0 316 -94.5 458.5t-225.5 142.5z" />
    <glyph glyph-name="oe" unicode="&#x153;" horiz-adv-x="1585" 
d="M805 175q-62 -99 -143.5 -149t-182.5 -50q-178 0 -293.5 140t-115.5 404q0 188 53 314.5t146 189t214 62.5q107 0 193 -55t129 -148q55 98 138 150.5t180 52.5q177 0 291 -148.5t111 -454.5h-642q3 -171 78 -265t181 -94q79 0 139 55t86 167l147 -26
q-37 -171 -135.5 -257.5t-240.5 -86.5q-107 0 -194.5 52t-138.5 147zM221 533q0 -193 65 -293q75 -116 195 -116q100 0 176 105.5t76 306.5q0 199 -76 300.5t-184 101.5q-115 0 -183.5 -113t-68.5 -292zM888 631h482q-10 154 -76 230.5t-161 76.5q-96 0 -166 -80t-79 -227z
" />
    <glyph glyph-name="endash" unicode="&#x2013;" 
d="M-6 458v145h934v-145h-934z" />
    <glyph glyph-name="emdash" unicode="&#x2014;" horiz-adv-x="1679" 
d="M0 458v145h1679v-145h-1679z" />
    <glyph glyph-name="quotedblleft" unicode="&#x201c;" horiz-adv-x="559" 
d="M481 1195v-209h-159v165q0 141 34 209t101 106l37 -71q-42 -21 -65 -65t-26 -135h78zM226 1195v-209h-158v165q0 141 33.5 209t101.5 106l37 -71q-42 -21 -65 -64.5t-26 -135.5h77z" />
    <glyph glyph-name="quotedblright" unicode="&#x201d;" horiz-adv-x="559" 
d="M71 1256v210h159v-165q0 -142 -34 -210t-102 -105l-36 70q86 44 90 200h-77zM325 1256v210h159v-165q0 -142 -33.5 -210t-101.5 -105l-37 70q41 21 64.5 66t26.5 134h-78z" />
    <glyph glyph-name="quoteleft" unicode="&#x2018;" horiz-adv-x="373" 
d="M260 1195v-209h-158v165q0 141 33.5 209t101.5 106l37 -71q-42 -21 -65 -64.5t-26 -135.5h77z" />
    <glyph glyph-name="quoteright" unicode="&#x2019;" horiz-adv-x="373" 
d="M98 1256v210h159v-165q0 -142 -34 -210t-102 -105l-36 70q86 44 90 200h-77z" />
    <glyph glyph-name="divide" unicode="&#xf7;" horiz-adv-x="1124" 
d="M459 922v205h205v-205h-205zM1046 639h-968v168h968v-168zM459 319v205h205v-205h-205z" />
    <glyph glyph-name="lozenge" unicode="&#x25ca;" horiz-adv-x="1012" 
d="M549 1422l418 -713l-418 -709h-111l-391 709l391 713h111zM495 1325l-340 -616l340 -615l359 615z" />
    <glyph glyph-name="ydieresis" unicode="&#xff;" horiz-adv-x="840" 
d="M104 -409l-16 169q49 -16 84 -16q47 0 77.5 19t50.5 59q7 14 58 176l-331 1064h159l182 -615q34 -115 63 -246q25 124 60 242l186 619h148l-331 -1080q-65 -210 -102.5 -280.5t-85 -101.5t-107.5 -31q-42 0 -95 22zM199 1270v205h154v-205h-154zM505 1270v205h154v-205
h-154z" />
    <glyph glyph-name="Ydieresis" unicode="&#x178;" horiz-adv-x="1120" 
d="M468 0v621l-463 845h194l236 -442q70 -131 123 -248q53 115 131 259l233 431h185l-480 -845v-621h-159zM330 1642v205h154v-205h-154zM636 1642v205h154v-205h-154z" />
    <glyph glyph-name="fraction" unicode="&#x2215;" horiz-adv-x="281" 
d="M-373 -57l903 1548h128l-902 -1548h-129z" />
    <glyph glyph-name="currency" unicode="&#xa4;" 
d="M172 961l-114 136l94 119l114 -139q43 36 91.5 54t103.5 18t103.5 -18t90.5 -54l114 139l95 -119l-114 -136q58 -110 58 -235t-58 -236l114 -136l-95 -119l-114 140q-42 -36 -90.5 -54.5t-103.5 -18.5t-103.5 18.5t-91.5 54.5l-114 -140l-94 119l114 136q-58 111 -58 236
t58 235zM247 726q0 -112 64 -186t149 -74t149 74t64 186q0 111 -64 185t-149 74t-149 -74t-64 -185z" />
    <glyph glyph-name="guilsinglleft" unicode="&#x2039;" horiz-adv-x="559" 
d="M238 527l217 -455h-122l-258 455l258 457h122z" />
    <glyph glyph-name="guilsinglright" unicode="&#x203a;" horiz-adv-x="559" 
d="M320 530l-217 454h122l258 -454l-258 -458h-122z" />
    <glyph glyph-name="fi" unicode="&#xf001;" horiz-adv-x="840" 
d="M150 0v923h-131v139h131v103q0 173 62 249.5t171 76.5q81 0 150 -23l-24 -152q-43 9 -79 9q-76 0 -104 -36.5t-28 -157.5v-69h169v-139h-169v-923h-148zM578 1259v207h147v-207h-147zM578 0v1062h147v-1062h-147z" />
    <glyph glyph-name="fl" unicode="&#xf002;" horiz-adv-x="840" 
d="M149 0v923h-131v139h131v103q0 173 62 249.5t171 76.5q81 0 150 -23l-24 -152q-43 9 -79 9q-76 0 -104 -36.5t-28 -157.5v-69h169v-139h-169v-923h-148zM576 0v1466h147v-1466h-147z" />
    <glyph glyph-name="daggerdbl" unicode="&#x2021;" 
d="M387 -346v370h-330v161h330v725h-330v161h330v375h147v-375h331v-161h-331v-725h331v-161h-331v-370h-147z" />
    <glyph glyph-name="periodcentered" unicode="&#xb7;" horiz-adv-x="467" 
d="M155 619v205h168v-205h-168z" />
    <glyph glyph-name="periodcentered" unicode="&#x2219;" horiz-adv-x="467" 
d="M155 619v205h168v-205h-168z" />
    <glyph glyph-name="quotesinglbase" unicode="&#x201a;" horiz-adv-x="373" 
d="M98 0v209h159v-165q0 -141 -34 -209t-102 -106l-36 71q86 44 90 200h-77z" />
    <glyph glyph-name="quotedblbase" unicode="&#x201e;" horiz-adv-x="559" 
d="M71 0v209h159v-165q0 -141 -34 -209t-102 -106l-36 71q86 44 90 200h-77zM325 0v209h159v-165q0 -141 -33.5 -209t-101.5 -106l-37 71q41 21 64.5 66t26.5 134h-78z" />
    <glyph glyph-name="perthousand" unicode="&#x2030;" horiz-adv-x="1679" 
d="M262 -54l493 1545h108l-493 -1545h-108zM30 1099q0 199 65.5 289.5t167.5 90.5q105 0 171.5 -91t66.5 -297q0 -204 -65 -293.5t-169 -89.5q-103 0 -170 92.5t-67 298.5zM152 1091q0 -150 32 -204t88 -54q47 0 74 47q34 62 34 213t-32 206.5t-84 55.5q-50 0 -77 -49
q-35 -63 -35 -215zM625 336q0 200 65.5 290t167.5 90q105 0 171.5 -91t66.5 -297q0 -204 -65 -293t-169 -89q-103 0 -170 92.5t-67 297.5zM747 328q0 -150 31.5 -204t88.5 -54q47 0 77.5 54.5t30.5 206.5q0 151 -32 206t-85 55q-49 0 -76 -48q-35 -64 -35 -216zM1178 336
q0 200 65.5 290t167.5 90q105 0 171.5 -91t66.5 -297q0 -204 -65 -293t-169 -89q-103 0 -170 92.5t-67 297.5zM1300 328q0 -150 32 -204t88 -54q47 0 77.5 54.5t30.5 206.5q0 151 -32 206t-84 55q-50 0 -77 -48q-35 -64 -35 -216z" />
    <glyph glyph-name="Acircumflex" unicode="&#xc2;" horiz-adv-x="1120" 
d="M-2 0l462 1466h171l492 -1466h-182l-140 444h-502l-132 -444h-169zM345 602h407l-125 406q-58 187 -85 304q-23 -141 -65 -280zM562 1736l-92 -170h-169l177 280h158l184 -280h-167z" />
    <glyph glyph-name="Ecircumflex" unicode="&#xca;" horiz-adv-x="1120" 
d="M133 0v1466h869v-173h-710v-449h665v-172h-665v-499h738v-173h-897zM562 1736l-92 -170h-169l177 280h158l184 -280h-167z" />
    <glyph glyph-name="Aacute" unicode="&#xc1;" horiz-adv-x="1120" 
d="M-2 0l462 1466h171l492 -1466h-182l-140 444h-502l-132 -444h-169zM345 602h407l-125 406q-58 187 -85 304q-23 -141 -65 -280zM463 1566l109 280h193l-180 -280h-122z" />
    <glyph glyph-name="Edieresis" unicode="&#xcb;" horiz-adv-x="1120" 
d="M133 0v1466h869v-173h-710v-449h665v-172h-665v-499h738v-173h-897zM330 1642v205h154v-205h-154zM636 1642v205h154v-205h-154z" />
    <glyph glyph-name="Egrave" unicode="&#xc8;" horiz-adv-x="1120" 
d="M133 0v1466h869v-173h-710v-449h665v-172h-665v-499h738v-173h-897zM661 1566h-119l-189 280h198z" />
    <glyph glyph-name="Iacute" unicode="&#xcd;" horiz-adv-x="467" 
d="M160 0v1466h159v-1466h-159zM142 1566l109 280h193l-180 -280h-122z" />
    <glyph glyph-name="Icircumflex" unicode="&#xce;" horiz-adv-x="467" 
d="M160 0v1466h159v-1466h-159zM241 1736l-92 -170h-169l177 280h158l184 -280h-167z" />
    <glyph glyph-name="Idieresis" unicode="&#xcf;" horiz-adv-x="467" 
d="M160 0v1466h159v-1466h-159zM9 1642v205h154v-205h-154zM315 1642v205h154v-205h-154z" />
    <glyph glyph-name="Igrave" unicode="&#xcc;" horiz-adv-x="467" 
d="M160 0v1466h159v-1466h-159zM340 1566h-119l-189 280h198z" />
    <glyph glyph-name="Oacute" unicode="&#xd3;" horiz-adv-x="1307" 
d="M85 714q0 375 165 576.5t411 201.5q159 0 290 -90t207.5 -261.5t76.5 -408.5q0 -326 -148 -531q-163 -226 -427 -226q-266 0 -428 232q-147 210 -147 507zM249 711q0 -271 119.5 -420.5t290.5 -149.5q175 0 293.5 151t118.5 444q0 189 -61 338q-47 114 -141.5 182.5
t-206.5 68.5q-180 0 -296.5 -150t-116.5 -464zM562 1566l109 280h193l-180 -280h-122z" />
    <glyph glyph-name="Ocircumflex" unicode="&#xd4;" horiz-adv-x="1307" 
d="M85 714q0 375 165 576.5t411 201.5q159 0 290 -90t207.5 -261.5t76.5 -408.5q0 -326 -148 -531q-163 -226 -427 -226q-266 0 -428 232q-147 210 -147 507zM249 711q0 -271 119.5 -420.5t290.5 -149.5q175 0 293.5 151t118.5 444q0 189 -61 338q-47 114 -141.5 182.5
t-206.5 68.5q-180 0 -296.5 -150t-116.5 -464zM681 1736l-92 -170h-169l177 280h158l184 -280h-167z" />
    <glyph glyph-name="Ograve" unicode="&#xd2;" horiz-adv-x="1307" 
d="M85 714q0 375 165 576.5t411 201.5q159 0 290 -90t207.5 -261.5t76.5 -408.5q0 -326 -148 -531q-163 -226 -427 -226q-266 0 -428 232q-147 210 -147 507zM249 711q0 -271 119.5 -420.5t290.5 -149.5q175 0 293.5 151t118.5 444q0 189 -61 338q-47 114 -141.5 182.5
t-206.5 68.5q-180 0 -296.5 -150t-116.5 -464zM761 1566h-119l-189 280h198z" />
    <glyph glyph-name="Uacute" unicode="&#xda;" horiz-adv-x="1212" 
d="M915 1466h160v-847q0 -213 -41.5 -349.5t-151 -215.5t-278.5 -79q-238 0 -356.5 142t-118.5 502v847h159v-846q0 -199 31 -288t101.5 -135.5t171.5 -46.5q170 0 246.5 96t76.5 374v846zM503 1566l109 280h193l-180 -280h-122z" />
    <glyph glyph-name="Ucircumflex" unicode="&#xdb;" horiz-adv-x="1212" 
d="M915 1466h160v-847q0 -213 -41.5 -349.5t-151 -215.5t-278.5 -79q-238 0 -356.5 142t-118.5 502v847h159v-846q0 -199 31 -288t101.5 -135.5t171.5 -46.5q170 0 246.5 96t76.5 374v846zM622 1736l-92 -170h-169l177 280h158l184 -280h-167z" />
    <glyph glyph-name="Ugrave" unicode="&#xd9;" horiz-adv-x="1212" 
d="M915 1466h160v-847q0 -213 -41.5 -349.5t-151 -215.5t-278.5 -79q-238 0 -356.5 142t-118.5 502v847h159v-846q0 -199 31 -288t101.5 -135.5t171.5 -46.5q170 0 246.5 96t76.5 374v846zM702 1566h-119l-189 280h198z" />
    <glyph glyph-name="dotlessi" unicode="&#x131;" horiz-adv-x="467" 
d="M166 0v1062h147v-1062h-147z" />
    <glyph glyph-name="circumflex" unicode="&#x2c6;" horiz-adv-x="559" 
d="M281 1364l-92 -170h-169l177 280h158l184 -280h-167z" />
    <glyph glyph-name="tilde" unicode="&#x2dc;" horiz-adv-x="559" 
d="M6 1219q-1 107 48 168q48 60 118 60q52 0 139 -54q48 -30 77 -30q27 0 40.5 17.5t19.5 69.5h107q-3 -115 -48.5 -171.5t-113.5 -56.5q-50 0 -135 56q-55 36 -80 36q-27 0 -45 -23.5t-18 -71.5h-109z" />
    <glyph glyph-name="uni02C9" unicode="&#x2c9;" horiz-adv-x="559" 
d="M24 1227v148h512v-148h-512z" />
    <glyph glyph-name="breve" unicode="&#x2d8;" horiz-adv-x="559" 
d="M421 1464h101q-13 -129 -78 -194t-165 -65t-164.5 65t-77.5 194h101q23 -135 137 -135q64 0 99 32t47 103z" />
    <glyph glyph-name="dotaccent" unicode="&#x2d9;" horiz-adv-x="559" 
d="M188 1194v224h183v-224h-183z" />
    <glyph glyph-name="ring" unicode="&#x2da;" horiz-adv-x="559" 
d="M133 1338q0 75 44.5 127t103.5 52q58 0 102.5 -52t44.5 -131q0 -80 -44 -131.5t-103 -51.5t-103.5 52t-44.5 135zM196 1337q0 -49 26 -80t60 -31t60.5 31t26.5 78t-26 78t-60 31q-35 0 -61 -31t-26 -76z" />
    <glyph glyph-name="cedilla" unicode="&#xb8;" horiz-adv-x="559" 
d="M177 -154l43 177h110l-28 -107q68 -10 104.5 -51t36.5 -99q0 -78 -62.5 -132.5t-170.5 -54.5q-71 0 -122 12l9 117q53 -4 81 -4q67 0 97.5 21t30.5 54q0 31 -27.5 48.5t-101.5 18.5z" />
    <glyph glyph-name="hungarumlaut" unicode="&#x2dd;" horiz-adv-x="559" 
d="M48 1194l99 280h192l-173 -280h-118zM332 1194l104 280h190l-170 -280h-124z" />
    <glyph glyph-name="ogonek" unicode="&#x2db;" horiz-adv-x="559" 
d="M184 24h101q-31 -89 -31 -165q0 -69 34 -110t84 -41q62 0 137 46v-119q-96 -60 -179 -60q-79 0 -129.5 58t-50.5 165q0 85 34 226z" />
    <glyph glyph-name="caron" unicode="&#x2c7;" horiz-adv-x="559" 
d="M294 1304l91 170h167l-184 -280h-158l-177 280h169z" />
    <glyph glyph-name="Lslash" unicode="&#x141;" 
d="M116 565l-119 -123v167l119 124v733h159v-568l163 166v-167l-163 -166v-558h597v-173h-756v565z" />
    <glyph glyph-name="lslash" unicode="&#x142;" horiz-adv-x="373" 
d="M105 574l-106 -110v158l106 110v734h148v-582l110 115v-157l-110 -115v-727h-148v574z" />
    <glyph glyph-name="Scaron" unicode="&#x160;" horiz-adv-x="1120" 
d="M76 471l150 16q12 -121 54.5 -188.5t121.5 -108.5t178 -41q142 0 220.5 69.5t78.5 180.5q0 65 -28.5 113.5t-86 79.5t-248.5 87q-170 50 -242 101t-112 129.5t-40 177.5q0 178 115 291t310 113q134 0 234.5 -53t156 -152t59.5 -233l-153 -14q-12 143 -85.5 212t-206.5 69
q-135 0 -206 -60.5t-71 -156.5q0 -89 52 -138t234 -99q178 -49 250 -85q110 -56 166 -147.5t56 -218.5q0 -126 -59 -229.5t-160.5 -157.5t-244.5 -54q-223 0 -355.5 134t-137.5 363zM565 1676l91 170h167l-184 -280h-158l-177 280h169z" />
    <glyph glyph-name="scaron" unicode="&#x161;" horiz-adv-x="840" 
d="M52 317l146 28q13 -112 71 -166.5t154 -54.5t148.5 47.5t52.5 120.5q0 63 -45 98q-31 24 -150 60q-172 53 -230 90t-90 99t-32 141q0 136 87 221t241 85q97 0 170.5 -35t112.5 -94t54 -169l-144 -24q-20 174 -189 174q-96 0 -143 -38.5t-47 -98.5q0 -59 45 -93
q27 -20 160 -64q183 -59 237 -93.5t84 -94t30 -141.5q0 -152 -96.5 -246t-263.5 -94q-313 0 -363 342zM415 1304l91 170h167l-184 -280h-158l-177 280h169z" />
    <glyph glyph-name="brokenbar" unicode="&#xa6;" horiz-adv-x="436" 
d="M285 1491v-790h-129v790h129zM285 360v-791h-129v791h129z" />
    <glyph glyph-name="Eth" unicode="&#xd0;" horiz-adv-x="1212" 
d="M126 0v667h-132v132h132v667h415q155 0 234 -27q105 -35 182 -128t120 -234.5t43 -336.5q0 -211 -53.5 -369t-132 -237.5t-189.5 -114.5q-62 -19 -185 -19h-434zM285 173h256q155 0 235 50.5t122 161.5q58 150 58 356q0 227 -61 354t-156 170q-64 28 -202 28h-252v-494
h332v-132h-332v-494z" />
    <glyph glyph-name="eth" unicode="&#xf0;" 
d="M250 1466h177q60 -54 103 -102l175 102l38 -102l-142 -83q262 -368 262 -758q0 -261 -115.5 -404.5t-287.5 -143.5q-115 0 -206.5 62t-144 177t-52.5 302q0 267 107.5 406.5t262.5 139.5q47 0 83.5 -12t90.5 -47q-47 116 -116 213l-226 -127l-36 103l197 109
q-80 90 -170 165zM711 529q0 192 -74.5 293.5t-182.5 101.5q-106 0 -176 -100.5t-70 -311.5q0 -197 72.5 -293.5t178.5 -96.5q105 0 178.5 103t73.5 304z" />
    <glyph glyph-name="Yacute" unicode="&#xdd;" horiz-adv-x="1120" 
d="M468 0v621l-463 845h194l236 -442q70 -131 123 -248q53 115 131 259l233 431h185l-480 -845v-621h-159zM463 1566l109 280h193l-180 -280h-122z" />
    <glyph glyph-name="yacute" unicode="&#xfd;" horiz-adv-x="840" 
d="M104 -409l-16 169q49 -16 84 -16q47 0 77.5 19t50.5 59q7 14 58 176l-331 1064h159l182 -615q34 -115 63 -246q25 124 60 242l186 619h148l-331 -1080q-65 -210 -102.5 -280.5t-85 -101.5t-107.5 -31q-42 0 -95 22zM344 1194l109 280h193l-180 -280h-122z" />
    <glyph glyph-name="Thorn" unicode="&#xde;" horiz-adv-x="1120" 
d="M130 0v1466h159v-298h294q161 0 237 -29q104 -38 166 -141t62 -252q0 -197 -101 -322.5t-350 -125.5h-308v-298h-159zM289 471h311q147 0 215 66.5t68 200.5q0 87 -33.5 148.5t-81 85t-171.5 23.5h-308v-524z" />
    <glyph glyph-name="thorn" unicode="&#xfe;" 
d="M108 -407v1873h147v-516q62 79 115.5 107.5t123.5 28.5q103 0 186 -61t133.5 -185.5t50.5 -299.5q0 -270 -113.5 -417t-265.5 -147q-65 0 -117 28t-113 106v-517h-147zM241 525q0 -206 69 -303.5t167 -97.5q94 0 165 101t71 312q0 208 -69 308t-167 100
q-90 0 -163 -107.5t-73 -312.5z" />
    <glyph glyph-name="multiply" unicode="&#xd7;" horiz-adv-x="981" 
d="M130 409l259 315l-258 314l100 122l258 -314l256 313l99 -121l-257 -313l258 -314l-100 -122l-258 314l-258 -315z" />
    <glyph glyph-name="onesuperior" unicode="&#xb9;" horiz-adv-x="559" 
d="M270 733v554q-84 -81 -184 -113v123q51 20 113.5 73.5t100.5 113.5h89v-751h-119z" />
    <glyph glyph-name="twosuperior" unicode="&#xb2;" horiz-adv-x="559" 
d="M20 733q12 131 212 308q120 106 143.5 141t23.5 73q0 52 -30 81.5t-83 29.5t-80 -23t-45 -91l-124 16q25 115 85 165.5t165 50.5q118 0 179 -55.5t61 -149.5q0 -84 -50 -159q-37 -55 -166 -169q-68 -61 -97 -97h317v-121h-511z" />
    <glyph glyph-name="threesuperior" unicode="&#xb3;" horiz-adv-x="559" 
d="M26 929l120 15q17 -62 48 -87t78 -25q55 0 91.5 37.5t36.5 95.5q0 53 -31 81.5t-98 28.5l-27 -2l-18 -1l18 110q61 -1 94.5 27t33.5 75q0 40 -26.5 64.5t-71.5 24.5t-71.5 -21.5t-45.5 -80.5l-117 23q35 109 86.5 149.5t149.5 40.5q110 0 167 -50.5t57 -135.5
q0 -59 -30 -101t-83 -60q142 -43 142 -191q0 -99 -68 -165t-179 -66q-220 0 -256 214z" />
    <glyph glyph-name="onehalf" unicode="&#xbd;" horiz-adv-x="1401" 
d="M270 733v554q-84 -81 -184 -113v123q51 20 113.5 73.5t100.5 113.5h89v-751h-119zM185 -57l903 1548h128l-902 -1548h-129zM859 -31q12 131 212 308q120 106 143.5 141t23.5 73q0 52 -30 81.5t-83 29.5t-80 -23t-45 -91l-124 16q25 115 85 165.5t165 50.5
q118 0 179 -55.5t61 -149.5q0 -84 -50 -159q-37 -55 -166 -169q-68 -61 -97 -97h317v-121h-511z" />
    <glyph glyph-name="onequarter" unicode="&#xbc;" horiz-adv-x="1401" 
d="M270 733v554q-84 -81 -184 -113v123q51 20 113.5 73.5t100.5 113.5h89v-751h-119zM205 -57l903 1548h128l-902 -1548h-129zM1170 -31v154h-313v123l332 474h100v-489h85v-108h-85v-154h-119zM1170 231v263l-188 -263h188z" />
    <glyph glyph-name="threequarters" unicode="&#xbe;" horiz-adv-x="1401" 
d="M26 929l120 15q17 -62 48 -87t78 -25q55 0 91.5 37.5t36.5 95.5q0 53 -31 81.5t-98 28.5l-27 -2l-18 -1l18 110q61 -1 94.5 27t33.5 75q0 40 -26.5 64.5t-71.5 24.5t-71.5 -21.5t-45.5 -80.5l-117 23q35 109 86.5 149.5t149.5 40.5q110 0 167 -50.5t57 -135.5
q0 -59 -30 -101t-83 -60q142 -43 142 -191q0 -99 -68 -165t-179 -66q-220 0 -256 214zM205 -57l903 1548h128l-902 -1548h-129zM1170 -31v154h-313v123l332 474h100v-489h85v-108h-85v-154h-119zM1170 231v263l-188 -263h188z" />
    <glyph glyph-name="macron" unicode="&#xaf;" horiz-adv-x="1024" 
d="M-12 1722h1048v-103h-1048v103z" />
    <glyph glyph-name="foursuperior" horiz-adv-x="559" 
d="M332 733v154h-313v123l332 474h100v-489h85v-108h-85v-154h-119zM332 995v263l-188 -263h188z" />
    <hkern u1="&#x20;" u2="Y" k="29" />
    <hkern u1="&#x20;" u2="T" k="29" />
    <hkern u1="&#x20;" u2="A" k="92" />
    <hkern u1="&#x31;" u2="&#x31;" k="123" />
    <hkern u1="A" u2="&#x2019;" k="123" />
    <hkern u1="A" u2="y" k="29" />
    <hkern u1="A" u2="w" k="29" />
    <hkern u1="A" u2="v" k="29" />
    <hkern u1="A" u2="Y" k="123" />
    <hkern u1="A" u2="W" k="61" />
    <hkern u1="A" u2="V" k="123" />
    <hkern u1="A" u2="T" k="123" />
    <hkern u1="A" u2="&#x20;" k="92" />
    <hkern u1="F" u2="A" k="92" />
    <hkern u1="F" u2="&#x2e;" k="186" />
    <hkern u1="F" u2="&#x2c;" k="186" />
    <hkern u1="L" u2="&#x2019;" k="92" />
    <hkern u1="L" u2="y" k="61" />
    <hkern u1="L" u2="Y" k="123" />
    <hkern u1="L" u2="W" k="123" />
    <hkern u1="L" u2="V" k="123" />
    <hkern u1="L" u2="T" k="123" />
    <hkern u1="L" u2="&#x20;" k="61" />
    <hkern u1="P" u2="A" k="123" />
    <hkern u1="P" u2="&#x2e;" k="215" />
    <hkern u1="P" u2="&#x2c;" k="215" />
    <hkern u1="P" u2="&#x20;" k="29" />
    <hkern u1="R" u2="Y" k="29" />
    <hkern u1="R" u2="W" k="29" />
    <hkern u1="R" u2="V" k="29" />
    <hkern u1="R" u2="T" k="29" />
    <hkern u1="T" u2="y" k="92" />
    <hkern u1="T" u2="w" k="92" />
    <hkern u1="T" u2="u" k="61" />
    <hkern u1="T" u2="s" k="143" />
    <hkern u1="T" u2="r" k="61" />
    <hkern u1="T" u2="o" k="186" />
    <hkern u1="T" u2="i" k="37" />
    <hkern u1="T" u2="e" k="186" />
    <hkern u1="T" u2="c" k="186" />
    <hkern u1="T" u2="a" k="186" />
    <hkern u1="T" u2="O" k="29" />
    <hkern u1="T" u2="A" k="123" />
    <hkern u1="T" u2="&#x3b;" k="186" />
    <hkern u1="T" u2="&#x3a;" k="186" />
    <hkern u1="T" u2="&#x2e;" k="186" />
    <hkern u1="T" u2="&#x2d;" k="92" />
    <hkern u1="T" u2="&#x2c;" k="186" />
    <hkern u1="T" u2="&#x20;" k="29" />
    <hkern u1="V" u2="y" k="61" />
    <hkern u1="V" u2="u" k="61" />
    <hkern u1="V" u2="r" k="61" />
    <hkern u1="V" u2="o" k="92" />
    <hkern u1="V" u2="i" k="29" />
    <hkern u1="V" u2="e" k="92" />
    <hkern u1="V" u2="a" k="123" />
    <hkern u1="V" u2="A" k="123" />
    <hkern u1="V" u2="&#x3b;" k="61" />
    <hkern u1="V" u2="&#x3a;" k="61" />
    <hkern u1="V" u2="&#x2e;" k="154" />
    <hkern u1="V" u2="&#x2d;" k="92" />
    <hkern u1="V" u2="&#x2c;" k="154" />
    <hkern u1="W" u2="y" k="14" />
    <hkern u1="W" u2="u" k="29" />
    <hkern u1="W" u2="r" k="29" />
    <hkern u1="W" u2="o" k="29" />
    <hkern u1="W" u2="e" k="29" />
    <hkern u1="W" u2="a" k="61" />
    <hkern u1="W" u2="A" k="61" />
    <hkern u1="W" u2="&#x3b;" k="29" />
    <hkern u1="W" u2="&#x3a;" k="29" />
    <hkern u1="W" u2="&#x2e;" k="92" />
    <hkern u1="W" u2="&#x2d;" k="29" />
    <hkern u1="W" u2="&#x2c;" k="92" />
    <hkern u1="Y" u2="v" k="92" />
    <hkern u1="Y" u2="u" k="92" />
    <hkern u1="Y" u2="q" k="154" />
    <hkern u1="Y" u2="p" k="123" />
    <hkern u1="Y" u2="o" k="154" />
    <hkern u1="Y" u2="i" k="61" />
    <hkern u1="Y" u2="e" k="154" />
    <hkern u1="Y" u2="a" k="123" />
    <hkern u1="Y" u2="A" k="123" />
    <hkern u1="Y" u2="&#x3b;" k="109" />
    <hkern u1="Y" u2="&#x3a;" k="92" />
    <hkern u1="Y" u2="&#x2e;" k="215" />
    <hkern u1="Y" u2="&#x2d;" k="154" />
    <hkern u1="Y" u2="&#x2c;" k="215" />
    <hkern u1="Y" u2="&#x20;" k="29" />
    <hkern u1="f" u2="&#x2019;" k="-29" />
    <hkern u1="f" u2="f" k="29" />
    <hkern u1="r" u2="&#x2019;" k="-61" />
    <hkern u1="r" u2="&#x2e;" k="92" />
    <hkern u1="r" u2="&#x2c;" k="92" />
    <hkern u1="v" u2="&#x2e;" k="123" />
    <hkern u1="v" u2="&#x2c;" k="123" />
    <hkern u1="w" u2="&#x2e;" k="92" />
    <hkern u1="w" u2="&#x2c;" k="92" />
    <hkern u1="y" u2="&#x2e;" k="123" />
    <hkern u1="y" u2="&#x2c;" k="123" />
    <hkern u1="&#x2018;" u2="&#x2018;" k="29" />
    <hkern u1="&#x2019;" u2="&#x2019;" k="29" />
    <hkern u1="&#x2019;" u2="s" k="29" />
    <hkern u1="&#x2019;" u2="&#x20;" k="61" />
  </font>
</defs></svg>
